Division,WeightClassKg,Place,Name,Team,BodyweightKg,Best3SquatKg,Best3BenchKg,Best3DeadliftKg,TotalKg,Equipment,Event,Sex,BirthDate
Boys,51.71,1,Davion Wilson,Itasca,51.17,115.67,77.11,131.54,324.32,Unlimited,SBD,M,
Boys,51.71,2,Cesar Ramos,Meridian,50.89,104.33,40.82,113.4,258.55,Unlimited,SBD,M,
Boys,51.71,3,Jonny Cartwright,Rosebud-Lott,42.46,79.38,52.16,97.52,229.06,Unlimited,SBD,M,
Boys,51.71,4,Miguel Juarez,Rosebud-Lott,47.72,79.38,47.63,102.06,229.06,Unlimited,SBD,M,
Boys,51.71,5,Zackary Smith,Meridian,51.07,90.72,40.82,92.99,224.53,Unlimited,SBD,M,
Boys,51.71,DQ,Shiner Thurman,Milano,44.81,,54.43,88.45,,Unlimited,SBD,M,
Boys,55.79,1,Aiden Valdez,Rosebud-Lott,55.7,145.15,104.33,149.69,399.16,Unlimited,SBD,M,
Boys,55.79,2,Christian Campos,Hubbard,54.07,90.72,74.84,145.15,310.71,Unlimited,SBD,M,
Boys,55.79,DQ,Alvan Thao,Itasca,54.79,108.86,,127.01,,Unlimited,SBD,M,
Boys,55.79,DQ,Hayden Cummings,Meridian,53.98,,49.9,127.01,,Unlimited,SBD,M,
Boys,55.79,DQ,Timothy Kruger,Rosebud-Lott,54.98,120.2,88.45,,,Unlimited,SBD,M,
Boys,55.79,DQ,Drew Werlinger,Milano,55.7,129.27,,151.95,,Unlimited,SBD,M,
Boys,59.87,1,Teague Arlitt,Axtell,59.78,136.08,77.11,151.95,365.14,Unlimited,SBD,M,
Boys,59.87,2,Quintin Hutchison,Axtell,57.24,102.06,77.11,129.27,308.44,Unlimited,SBD,M,
Boys,59.87,DQ,Kato Mattair,Rosebud-Lott,59.6,142.88,,161.03,,Unlimited,SBD,M,
Boys,59.87,DQ,George Burke,Milano,59.87,,,,,Unlimited,SBD,M,
Boys,59.87,DQ,Jd Chambers,Milano,57.06,,,124.74,,Unlimited,SBD,M,
Boys,59.87,DQ,Sam Battles,Milano,59.87,,,142.88,,Unlimited,SBD,M,
Boys,67.13,1,Gustavo Loera,Rosebud-Lott,65.41,161.03,97.52,174.63,433.18,Unlimited,SBD,M,
Boys,67.13,2,Michael Harrison,Axtell,66.13,145.15,102.06,181.44,428.64,Unlimited,SBD,M,
Boys,67.13,3,Gabe Sanders,Milano,64.32,142.88,102.06,161.03,405.97,Unlimited,SBD,M,
Boys,67.13,4,Jhon Mendoza,Axtell,64.23,124.74,86.18,142.88,353.8,Unlimited,SBD,M,
Boys,67.13,5,Brandon Barron,Hubbard,64.86,81.65,61.23,136.08,278.96,Unlimited,SBD,M,
Boys,67.13,6,Cameron Ford,Thorndale,66.68,113.4,61.23,92.99,267.62,Unlimited,SBD,M,
Boys,67.13,DQ,Justin Dixon,Rosebud-Lott,66.13,,79.38,129.27,,Unlimited,SBD,M,
Boys,67.13,DQ,Cody Avant,Rosebud-Lott,67,142.88,,133.81,,Unlimited,SBD,M,
Boys,67.13,DQ,Ian Gomez,Meridian,61.33,149.69,,161.03,,Unlimited,SBD,M,
Boys,67.13,DQ,Cooper Arthur,Meridian,60.24,,,136.08,,Unlimited,SBD,M,
Boys,67.13,DQ,Cole Dyer,Milano,65.77,161.03,,170.1,,Unlimited,SBD,M,
Boys,74.84,1,Troy Arlitt,Axtell,70.13,192.78,99.79,226.8,519.36,Unlimited,SBD,M,
Boys,74.84,2,Tanner McAninch,Axtell,74.12,176.9,115.67,183.7,476.27,Unlimited,SBD,M,
Boys,74.84,3,Austin Pogue,Meridian,73.3,181.44,88.45,174.63,444.52,Unlimited,SBD,M,
Boys,74.84,4,Tyler Collier,Milano,67.49,136.08,124.74,170.1,430.91,Unlimited,SBD,M,
Boys,74.84,5,Hugo Costilla,Rosebud-Lott,74.8,158.76,106.59,161.03,426.38,Unlimited,SBD,M,
Boys,74.84,6,Derrick Gillham,Axtell,73.3,147.42,108.86,154.22,410.5,Unlimited,SBD,M,
Boys,74.84,7,Jacob Beardsley,Thorndale,73.66,149.69,102.06,158.76,410.5,Unlimited,SBD,M,
Boys,74.84,8,Ryan Barbara,Chilton,69.49,142.88,102.06,158.76,403.7,Unlimited,SBD,M,
Boys,74.84,9,Luke Smith,Meridian,71.12,142.88,90.72,161.03,394.63,Unlimited,SBD,M,
Boys,74.84,10,Marcus Shaw,Thorndale,69.58,129.27,102.06,133.81,365.14,Unlimited,SBD,M,
Boys,74.84,11,Grady Ballard,Thorndale,67.31,129.27,83.91,142.88,356.07,Unlimited,SBD,M,
Boys,74.84,12,Robert Gail III,Bruceville-Eddy,74.3,129.27,52.16,142.88,324.32,Unlimited,SBD,M,
Boys,74.84,DQ,Ezekiel Mabry,Meridian,74.57,149.69,,161.03,,Unlimited,SBD,M,
Boys,82.1,1,Alvin Clarkson-Williams,Rosebud-Lott,81.83,192.78,120.2,167.83,480.81,Unlimited,SBD,M,
Boys,82.1,2,Ben Myers,Thorndale,79.56,149.69,108.86,158.76,417.3,Unlimited,SBD,M,
Boys,82.1,3,Xzavion Taylor,Chilton,81.28,129.27,113.4,174.63,417.3,Unlimited,SBD,M,
Boys,82.1,4,Luke Badgett,Axtell,78.2,154.22,102.06,158.76,415.04,Unlimited,SBD,M,
Boys,82.1,5,Peyton Steinbecker,Milano,77.56,142.88,102.06,161.03,405.97,Unlimited,SBD,M,
Boys,89.81,1,Daniel Rodriguez,Rosebud-Lott,89.77,238.14,170.1,235.87,644.1,Unlimited,SBD,M,
Boys,89.81,2,Andres Ruelas,Milano,88.72,247.21,158.76,192.78,598.74,Unlimited,SBD,M,
Boys,89.81,3,Colton Bosse,Chilton,89.36,158.76,113.4,183.7,455.86,Unlimited,SBD,M,
Boys,89.81,4,Noah Sanchez,Axtell,87,170.1,102.06,181.44,453.59,Unlimited,SBD,M,
Boys,89.81,5,Noah Reyes,Axtell,85.91,163.29,99.79,158.76,421.84,Unlimited,SBD,M,
Boys,89.81,6,Anthony Bradley,Bruceville-Eddy,84.01,136.08,81.65,151.95,369.68,Unlimited,SBD,M,
Boys,89.81,7,Jake Lane,Hubbard,84.37,124.74,81.65,145.15,351.53,Unlimited,SBD,M,
Boys,89.81,8,Christian Whitmer,Meridian,87.09,129.27,68.04,131.54,328.85,Unlimited,SBD,M,
Boys,89.81,9,Caleb Cummings,Meridian,87.27,108.86,68.04,149.69,326.59,Unlimited,SBD,M,
Boys,89.81,DQ,Kolton Delaney,Itasca,83.46,158.76,,163.29,,Unlimited,SBD,M,
Boys,99.79,1,Austin McGowin,Milano,93.17,192.78,142.88,192.78,528.44,Unlimited,SBD,M,
Boys,99.79,2,Luke Price,Rosebud-Lott,90.17,195.04,138.35,174.63,508.02,Unlimited,SBD,M,
Boys,99.79,3,Christopher Deer,Somerville,98.16,158.76,133.81,199.58,492.15,Unlimited,SBD,M,
Boys,99.79,4,Gabriel Valerio,Hubbard,94.44,158.76,83.91,174.63,417.3,Unlimited,SBD,M,
Boys,99.79,5,Miguel Fajardo,Chilton,91.44,124.74,74.84,136.08,335.66,Unlimited,SBD,M,
Boys,99.79,DQ,Grant Tidwell,Itasca,91.44,156.49,,161.03,,Unlimited,SBD,M,
Boys,99.79,DQ,Bradly Perry,Meridian,95.8,158.76,,176.9,,Unlimited,SBD,M,
Boys,99.79,DQ,DeChristian Deere,Somerville,90.36,,92.99,161.03,,Unlimited,SBD,M,
Boys,99.79,DQ,Rekless Keen,Milano,94.8,92.99,,102.06,,Unlimited,SBD,M,
Boys,109.77,1,Garrett Cook,Rosebud-Lott,102.6,192.78,113.4,219.99,526.17,Unlimited,SBD,M,
Boys,109.77,2,Lorenzo Robles,Chilton,106.23,170.1,113.4,163.29,446.79,Unlimited,SBD,M,
Boys,109.77,3,Brenner Breton,Axtell,100.33,163.29,106.59,158.76,428.64,Unlimited,SBD,M,
Boys,109.77,4,Erik Castillo,Rosebud-Lott,99.88,174.63,92.99,158.76,426.38,Unlimited,SBD,M,
Boys,109.77,5,Nicholas Connelly,Somerville,108.59,142.88,92.99,149.69,385.55,Unlimited,SBD,M,
Boys,109.77,6,Bryant Murphy,Chilton,102.6,113.4,90.72,136.08,340.19,Unlimited,SBD,M,
Boys,109.77,DQ,Chase Wells,Milano,103.06,,106.59,,,Unlimited,SBD,M,
Boys,124.74,1,Kaleb Yount,Thorndale,124.28,226.8,163.29,226.8,616.89,Unlimited,SBD,M,
Boys,124.74,2,Brendon Tays,Rosebud-Lott,119.29,240.4,147.42,183.7,571.53,Unlimited,SBD,M,
Boys,124.74,3,Armando Robles,Chilton,114.4,142.88,102.06,181.44,426.38,Unlimited,SBD,M,
Boys,139.71,1,Alex Rodriguez,Rosebud-Lott,129.46,235.87,142.88,204.12,582.87,Unlimited,SBD,M,
Boys,139.71+,1,Jashawn Jones,Somerville,151.23,183.7,142.88,183.7,510.29,Unlimited,SBD,M,
Boys,139.71+,2,Tre'Shun Henry,Hubbard,151.77,172.37,106.59,190.51,469.47,Unlimited,SBD,M,
Boys,139.71+,3,Roberto Garcia-Vega,Somerville,141.88,145.15,90.72,142.88,378.75,Unlimited,SBD,M,
Boys,,NS,Greg Fowler,Somerville,,,,,,Unlimited,SBD,M,
Boys,,NS,Jesse Hernandez,Axtell,,,,,,Unlimited,SBD,M,
Boys,,NS,Aiden McRae,Thorndale,,,,,,Unlimited,SBD,M,
Boys,,NS,Luciano Legon,Thorndale,,,,,,Unlimited,SBD,M,
Boys,,NS,Nick Markle,Thorndale,,,,,,Unlimited,SBD,M,
Boys,,NS,Nick Ramirez,Thorndale,,,,,,Unlimited,SBD,M,
Boys,,NS,Deven Cuba,Thorndale,,,,,,Unlimited,SBD,M,
Boys,,NS,Angelitto Smith,Chilton,,,,,,Unlimited,SBD,M,
Boys,,NS,Chauncey King,Chilton,,,,,,Unlimited,SBD,M,
Boys,,NS,Jairo Rueda,Chilton,,,,,,Unlimited,SBD,M,
Boys,,NS,LeZah Roddy-Boyd,Chilton,,,,,,Unlimited,SBD,M,
Boys,,NS,Markeydrick Taylor,Chilton,,,,,,Unlimited,SBD,M,
Boys,,NS,Sammy Simmons,Bruceville-Eddy,,,,,,Unlimited,SBD,M,
Boys,,NS,Carson Carter,Bruceville-Eddy,,,,,,Unlimited,SBD,M,
Boys,,NS,Nich Squires,Bruceville-Eddy,,,,,,Unlimited,SBD,M,
