Place,Name,Country,Equipment,Age,BodyweightKg,Division,WeightClassKg,Squat1Kg,Squat2Kg,Squat3Kg,Squat4Kg,Best3SquatKg,Bench1Kg,Bench2Kg,Bench3Kg,Bench4Kg,Best3BenchKg,Deadlift1Kg,Deadlift2Kg,Deadlift3Kg,Deadlift4Kg,Best3DeadliftKg,TotalKg,Event,Sex,BirthDate
DQ,Arabella Watson,Australia,Multi-ply,23,75.4,J,82.5,140,155,-160,,155,-100,-100,-100,,,100,110,120,,120,,SBD,F,
1,Hana Malinová,Czechia,Multi-ply,40,65.9,M1,67.5,-110,110,-130,,110,-55,55,60,,60,95,110,117.5,,117.5,287.5,SBD,F,
1,Jennifer Milliron-O'Neil,Ireland,Multi-ply,48,74.9,M2,75,120,142.5,-150,,142.5,100,115.5,120,,120,165,180,200,,200,462.5,SBD,F,
DQ,Michal Kastner,Czechia,Multi-ply,15,109.4,T1,110,-170,-170,-170,,,-150,,,,,,,,,,,SBD,M,
1,Tomáš Kunz,Czechia,Multi-ply,21,66.4,J,67.5,220,-235,,,220,125,-130,-135,,125,165,190,-200,,190,535,SBD,M,
1,Danijel Parac,Croatia,Multi-ply,29,66.8,O,67.5,170,-200,-200,,170,100,-115,-115,,100,190,210,225,,225,495,SBD,M,
1,Dawid Wełna,Poland,Multi-ply,32,99.7,O,100,240,-250,,,240,140,,,,140,200,-250,,,200,580,SBD,M,
1,Darren Bennett,Ireland,Multi-ply,39,106.3,O,110,-250,250,280,,280,220,230,-240,,230,290,310,-330,,310,820,SBD,M,
1,Leandro de Souza,Brazil,Multi-ply,41,98.5,M1,100,50,,,,50,177.5,185,192.5,,192.5,-150,150,,,150,392.5,SBD,M,
1,Karol Brečka,Czechia,Multi-ply,62,70.6,M5,75,170,180,-190,,180,90,100,-105,,100,170,185,200,,200,480,SBD,M,
1,Mieczysłąw Maczka,Germany,Multi-ply,69,86.1,M6,90,130,147.5,-155,,147.5,95,115,120,,120,135,152.5,,,152.5,420,SBD,M,
1,Anasztázia Rácz,Hungary,Wraps,15,59.1,T1,60,85,92.5,97.5,,97.5,45,50,-55,,50,115,122.5,125,,125,272.5,SBD,F,
2,Nadia Wieszczyk,Czechia,Wraps,15,56.9,T1,60,80,95,-105,,95,50,52.5,-55,,52.5,-105,105,115,,115,262.5,SBD,F,
3,Diana Mezecka,Latvia,Wraps,15,58.7,T1,60,80,-87.5,-87.5,,80,50,52.5,-55,,52.5,100,112.5,120,,120,252.5,SBD,F,
1,Millie Rose Jackson,Australia,Wraps,15,69.7,T1,75,100,-110,-115,,100,50,55,57.5,,57.5,100,112.5,-121,,112.5,270,SBD,F,
1,Inka Arhenius,Finland,Wraps,14,87.6,T1,90,90,100,110,115,110,40,50,-55,,50,100,115,130,,130,290,SBD,F,
1,Eliška Lapková,Czechia,Wraps,16,62.8,T2,67.5,-125,-125,125,,125,55,-60,,,55,120,125,-130,,125,305,SBD,F,
1,Maria Pires,Portugal,Wraps,16,71,T2,75,95,100,112.5,,112.5,45,-52.5,-52.5,,45,110,122.5,-130,,122.5,280,SBD,F,
1,Boglárka Trencsényi,Hungary,Wraps,16,78.9,T2,82.5,120,130,140,,140,55,60,67.5,,67.5,135,142.5,155,,155,362.5,SBD,F,
1,Nikol Lenghartová,Slovakia,Wraps,17,88.5,T2,90,120,130,140,,140,60,70,-75,,70,140,150,-157.5,,150,360,SBD,F,
2,Gréta Maczelka,Hungary,Wraps,17,87.1,T2,90,95,105,112.5,,112.5,60,65,70,,70,155,165,170,,170,352.5,SBD,F,
1,Cintia Kis,Hungary,Wraps,19,55.9,T3,56,85,90,-92.5,,90,45,-50,-50,,45,100,105,-110,,105,240,SBD,F,
1,Liliana Némethyová,,Wraps,18,64.3,T3,67.5,110,117.5,-122.5,,117.5,52.5,-57.5,-57.5,,52.5,115,,,,115,285,SBD,F,
1,Dorina Murányi,Hungary,Wraps,19,73.5,T3,75,125,-132.5,-132.5,,125,82.5,85,-90,,85,-162.5,162.5,165,,165,375,SBD,F,
2,Petra Orovecz,Hungary,Wraps,18,69.8,T3,75,110,120,135,,135,-60,60,-65,,60,140,-165,-165,,140,335,SBD,F,
1,Réka Székely,Hungary,Wraps,19,81.2,T3,82.5,130,142.5,150,,150,65,-70,-70,,65,145,155,160,,160,375,SBD,F,
2,Petra Szőcs,Hungary,Wraps,19,81.8,T3,82.5,130,135,-142.5,,135,52.5,-57.5,-57.5,,52.5,135,140,-145,,140,327.5,SBD,F,
1,Fanni Tóth,Hungary,Wraps,23,52,J,52,85,-95,95,,95,52.5,57.5,60,,60,100,110,-115,,110,265,SBD,F,
1,Beatriz Azevedo #1,Portugal,Raw,23,54.7,J,56,125,132.5,-140,,132.5,70,77.5,80,,80,135,145,155,,155,367.5,SBD,F,
DQ,Laura Tomai,Hungary,Wraps,20,53.8,J,56,115,120,125,,125,-50,-50,-50,,,-125,,,,,,SBD,F,
1,Elżbieta Kardaś,Poland,Wraps,23,57.6,J,60,90,100,105,,105,60,65,-67.5,,65,125,135,140,,140,310,SBD,F,
1,Anna Staszczak,Poland,Wraps,23,63.3,J,67.5,80,115,120,,120,50,55,-60,,55,125,135,-145,,135,310,SBD,F,
2,Leila Kozák,Hungary,Wraps,22,63.8,J,67.5,105,115,-122.5,,115,45,50,-52.5,,50,117.5,130,-132.5,,130,295,SBD,F,
1,Michaela Zemanová,Czechia,Wraps,23,71.1,J,75,190,200,205,,205,95,100,-105,,100,180,195,-200,,195,500,SBD,F,
2,Kristína Kastelic,Slovenia,Wraps,22,73.5,J,75,120,135,-140,,135,45,47.5,50,,50,125,-140,-140,,125,310,SBD,F,
3,Natalija Bedene,Slovenia,Wraps,22,73.5,J,75,100,110,-120,,110,37.5,-42.5,-42.5,,37.5,100,110,115,,115,262.5,SBD,F,
1,Nela Pavelková,Bulgaria,Wraps,21,77.4,J,82.5,110,-120,120,,120,60,65,67.5,,67.5,115,-125,125,,125,312.5,SBD,F,
2,Éva Smetanová,Czechia,Wraps,21,76.5,J,82.5,100,110,-120,,110,40,45,-50,,45,110,120,130,,130,285,SBD,F,
1,Edina Somogyi,Hungary,Wraps,31,46.7,O,48,85,-95,95,,95,55,60,-65,,60,90,100,-102.5,,100,255,SBD,F,
2,Réka Toplenszki,Hungary,Wraps,24,45.9,O,48,72.5,77.5,-80,,77.5,32.5,37.5,-40,,37.5,100,107.5,110,,110,225,SBD,F,
1,Mariša Golob,Slovenia,Wraps,33,55.5,O,56,150,160,165,,165,100,-105,-105,,100,175,185,190,,190,455,SBD,F,
2,Ana Vasconcelos,Portugal,Wraps,32,55.2,O,56,145,-155,-155,,145,65,67.5,70,,70,150,-155,155,,155,370,SBD,F,
DQ,Teresa Saiote,Portugal,Wraps,36,54.6,O,56,-100,-107.5,-112.5,,,-57.5,-57.5,-57.5,,,125,127.5,-130,,127.5,,SBD,F,
1,Ellen Freeborn,England,Wraps,32,59.3,O,60,140,150,155,,155,70,75,-77.5,,75,160,-170,170,-190,170,400,SBD,F,
1,Aleksandra Szymczykowska,Poland,Wraps,25,65.7,O,67.5,-185,195,205,,205,120,125,127.5,,127.5,185,195,205,,205,537.5,SBD,F,
2,Amelia Tricklebank,England,Wraps,30,65.5,O,67.5,125,137.5,150,,150,92.5,100,-102.5,,100,160,170,180,,180,430,SBD,F,
3,Marija Gajevskaja,Czechia,Wraps,25,66.3,O,67.5,140,150,-160,,150,80,-85,-85,,80,160,170,180,,180,410,SBD,F,
4,Claire Rutland,England,Wraps,27,66.4,O,67.5,125,135,142.5,,142.5,72.5,75,-80,,75,130,140,150,,150,367.5,SBD,F,
5,Katie Hawes,England,Wraps,25,65,O,67.5,-117.5,125,-132.5,,125,55,60,-62.5,,60,127.5,-132.5,-132.5,,127.5,312.5,SBD,F,
6,Dóra Szabados,Hungary,Wraps,24,65.5,O,67.5,95,105,-110,,105,-45,-45,45,,45,120,-127.5,-127.5,,120,270,SBD,F,
7,Marcellina Miklós,Hungary,Wraps,24,65.9,O,67.5,90,100,-105,,100,45,50,-52.5,,50,100,110,-117.5,,110,260,SBD,F,
1,Kristýna Kohoutová,Czechia,Wraps,26,73.6,O,75,160,175,-182.5,,175,85,90,-92.5,,90,170,180,-185,,180,445,SBD,F,
2,Samantha L Wolfe,Australia,Wraps,35,72,O,75,140,150,-155,,150,87.5,90,-92.5,,90,150,160,165,,165,405,SBD,F,
3,Beatriz Dias,Portugal,Wraps,24,67.9,O,75,115,120,130,,130,62.5,70,-72.5,,70,120,132.5,-140,,132.5,332.5,SBD,F,
1,Eszter Tompa,Hungary,Wraps,38,77.5,O,82.5,170,187.5,195,,195,75,82.5,-87.5,,82.5,160,175,185,,185,462.5,SBD,F,
2,Sylwia Parafiniuk,Poland,Wraps,30,82.5,O,82.5,120,125,130,,130,65,70,72.5,,72.5,147.5,155,160,,160,362.5,SBD,F,
3,Ernestová Viktoria,Czechia,Wraps,24,76,O,82.5,120,130,-140,,130,65,-70,-70,,65,115,125,135,,135,330,SBD,F,
1,Marie Tomečková,Czechia,Wraps,25,92,O,110,180,200,210,,210,85,95,100,,100,190,210,220,,220,530,SBD,F,
2,Marta Rocha Fontes,Portugal,Wraps,33,92.3,O,110,145,155,162.5,,162.5,77.5,82.5,-87.5,,82.5,165,175,185,,185,430,SBD,F,
3,Márcia Reis,Portugal,Wraps,27,100,O,110,95,105,-110,,105,40,-42.5,-42.5,,40,105,120,-130,,120,265,SBD,F,
1,Kristine Rathena,Latvia,Wraps,41,72,M1,75,132.5,140,145,,145,70,75,80,,80,140,150,160,,160,385,SBD,F,
2,Sónia Ricardo,Portugal,Wraps,42,71.1,M1,75,120,130,-135,,130,52.5,-55,55,,55,130,140,145,,145,330,SBD,F,
1,Michelle Del Guzzo,Australia,Wraps,44,82,M1,82.5,160,180,-192.5,,180,75,-85,-85,,75,165,175,185,,185,440,SBD,F,
1,Cristina Oliveira Pimenta,Brazil,Wraps,43,84.2,M1,90,175,185,-200,,185,82.5,90,92.5,,92.5,165,180,-195,,180,457.5,SBD,F,
1,Brenda Fitzgerald,Ireland,Wraps,42,90.6,M1,110,155,165,-172.5,,165,67.5,72.5,-77.5,,72.5,155,170,180,,180,417.5,SBD,F,
1,Aija Mikulica,Latvia,Wraps,45,58.3,M2,60,110,115,120,,120,57.5,60,62.5,,62.5,140,147.5,-152.5,,147.5,330,SBD,F,
2,Renáta Pápai,Hungary,Wraps,47,58.9,M2,60,120,-130,-130,,120,60,67.5,-70,,67.5,120,130,137.5,,137.5,325,SBD,F,
1,Henrietta Tuba,Hungary,Wraps,48,65.1,M2,67.5,115,125,-132.5,,125,85,-90,-90,,85,150,160,170,,170,380,SBD,F,
1,Szilvia Juhász-Ilyés,Hungary,Wraps,47,88.4,M2,90,105,122.5,-132.5,,122.5,50,60,-70,,60,120,142.5,-155,,142.5,325,SBD,F,
1,Eleteia Bueno De Oliveira,Brazil,Wraps,48,97.2,M2,110,150,-160,160,,160,80,85,-90,,85,-225,225,-230,,225,470,SBD,F,
2,Heather Ostler,Australia,Wraps,46,98.8,M2,110,85,92.5,100,,100,50,55,60,,60,100,115,125,,125,285,SBD,F,
1,Irina Pomerantsev,Israel,Wraps,53,43.8,M3,44,60,62.5,65,,65,57.5,-60,-60,,57.5,80,85,87.5,,87.5,210,SBD,F,
1,Judit Palecian,Hungary,Wraps,51,58.9,M3,60,100,110,-115,,110,65,70,-75,,70,115,125,135,,135,315,SBD,F,
DQ,Shaish Tal,Israel,Wraps,52,58.1,M3,60,-145,-145,-145,,,,,,,,,,,,,,SBD,F,
1,Raquel Elana Maia De Oliveira,Brazil,Wraps,51,119.5,M3,110+,100,-105,-105,,100,45,50,-55,,50,140,150,-155,,150,300,SBD,F,
1,Natalja Tsudinova,Estonia,Wraps,55,52.5,M4,56,30,-40,-45,,30,35,40,42.5,,42.5,55,65,70,,70,142.5,SBD,F,
1,Lesley Jayne Thomas,England,Wraps,57,64.7,M4,67.5,-140,140,145.5,,145.5,67.5,72.5,75,,75,150,157.5,-165,,157.5,378,SBD,F,
2,Amanda Dewhurst,Poland,Wraps,58,67.3,M4,67.5,105,115,120,,120,60,67.5,72.5,,72.5,140,150,155,,155,347.5,SBD,F,
1,Leena Stålstedt,Finland,Wraps,55,72.1,M4,75,90,105,-115,,105,80,-87.5,-87.5,,80,115,125,135,,135,320,SBD,F,
1,Katarína Zajková,Slovakia,Wraps,62,65.9,M5,67.5,125,135,,,135,50,-65,65,,65,160,175,-190,,175,375,SBD,F,
1,Christine Henwood,New Zealand,Wraps,64,73.3,M5,75,155,165,170,,170,90,95,-97.5,,95,-180,185,195,,195,460,SBD,F,
1,Toni M Wolfe,Australia,Wraps,71,67.4,M7,67.5,-80,85,90,,90,72.5,-77.5,-77.5,,72.5,130,140,-145,,140,302.5,SBD,F,
DQ,Mbarim Mehmeti,Albania,Wraps,41,66.8,M1,67.5,-160,-160,-160,,,,,,,,,,,,,,SBD,M,
1,Matthew Thompson #12,England,Wraps,41,80.2,M1,82.5,-170,-170,170,,170,110,120,-127.5,,120,220,232.5,-240,,232.5,522.5,SBD,M,
1,Viktor Kovács,Hungary,Wraps,41,88.8,M1,90,225,240,-250,,240,145,152.5,160,,160,225,235,245,,245,645,SBD,M,
2,Károly Horváth,Hungary,Wraps,43,89.8,M1,90,260,-272.5,-272.5,,260,125,-130,-130,,125,235,252.5,-262.5,,252.5,637.5,SBD,M,
3,Anthony Tascone,Australia,Wraps,43,89.7,M1,90,130,-145,150,,150,-95,100,-105,,100,170,185,200,,200,450,SBD,M,
4,Zsolt Molnár,Hungary,Wraps,42,83.4,M1,90,140,145,150,,150,95,-100,100,,100,155,162.5,170,,170,420,SBD,M,
1,Federico Sipione,Italy,Wraps,42,95.8,M1,100,265,-275,,,265,165,-175,-175,,165,290,-307.5,-310,,290,720,SBD,M,
2,Tábor Antal,Hungary,Wraps,44,100,M1,100,240,250,260,,260,160,170,175,,175,240,260,270,,270,705,SBD,M,
3,Marek Pavkov,Slovakia,Wraps,41,98.4,M1,100,-260,260,-270,,260,150,160,170,,170,230,250,265,,265,695,SBD,M,
4,Matthew Jack,England,Wraps,42,96.5,M1,100,235,252.5,257.5,,257.5,140,150,-155,,150,250,270,-275,,270,677.5,SBD,M,
1,Eduardo Cunha Kramm,Brazil,Wraps,42,108.6,M1,110,320,340,-355,,340,165,175,185,,185,300,320,,,320,845,SBD,M,
2,Matthew Fealey,England,Wraps,43,109.4,M1,110,-260,275,-292.5,,275,180,192.5,-200,,192.5,280,305,315,,315,782.5,SBD,M,
DQ,Lauris Gabrāns,Latvia,Wraps,41,108.8,M1,110,-300,300,320,,320,160,,,,160,-290,-290,,,,,SBD,M,
1,Pál Gubicza,Hungary,Wraps,42,123,M1,125,210,220,230,,230,165,172.5,177.5,,177.5,280,290,-297.5,,290,697.5,SBD,M,
2,Péter Juhász-Ilyés,Hungary,Wraps,41,119,M1,125,190,200,-217.5,,200,137.5,-145,-145,,137.5,190,-200,200,,200,537.5,SBD,M,
1,Erni Gregorčič,Slovenia,Wraps,47,73.8,M2,75,200,210,215,,215,140,145,-150,,145,225,240,252.5,,252.5,612.5,SBD,M,
1,Róbert Kornél Tóth,Hungary,Wraps,48,97.5,M2,100,-180,190,-200,,190,130,-140,140,,140,190,200,210,,210,540,SBD,M,
2,Gábor Szabó,Hungary,Wraps,47,98.7,M2,100,130,-150,-160,,130,90,100,105,,105,220,240,-245,,240,475,SBD,M,
1,Miroslav Hruška,Czechia,Wraps,49,108.7,M2,110,-240,240,250,,250,180,192.5,198,200,198,270,290,305,,305,753,SBD,M,
2,Lajos Bán,Hungary,Wraps,46,108.9,M2,110,-210,220,-230,,220,135,140,-145,,140,225,240,,,240,600,SBD,M,
1,Zoltán Mihályi,Hungary,Wraps,45,122.8,M2,125,240,-260,267.5,,267.5,170,185,-195,,185,240,260,-275,,260,712.5,SBD,M,
2,Mauricio Marques,Brazil,Wraps,45,124.1,M2,125,260,280,-290,,280,160,170,-175,,170,220,-240,,,220,670,SBD,M,
1,Attila Bója-Kovács,Hungary,Wraps,47,136.4,M2,140,-220,220,230,,230,150,160,-170,,160,240,250,-260,,250,640,SBD,M,
DQ,Attila Szegi,Hungary,Wraps,47,134.9,M2,140,-255,-255,,,,,,,,,,,,,,,SBD,M,
DQ,Sealy Westleigh,Ireland,Wraps,45,125.4,M2,140,-210,-210,210,,210,-155,-155,-155,,,,,,,,,SBD,M,
1,Peter Lehocký,Slovakia,Wraps,51,81.7,M3,82.5,210,232.5,-245,,232.5,150,162.5,-165,,162.5,240,265,275,,275,670,SBD,M,
1,József Török,Hungary,Wraps,53,90.3,M3,100,130,140,-150,,140,90,-100,100,,100,140,150,160,,160,400,SBD,M,
1,Marcio Rogério de Lima,Brazil,Wraps,51,119.7,M3,125,300,325,-350,,325,150,-160,,,150,320,350,-360,,350,825,SBD,M,
2,Tamás Bartalos,Hungary,Wraps,50,122.1,M3,125,200,210,220,,220,170,180,190,,190,220,230,240,,240,650,SBD,M,
3,Tamás Szabó,Hungary,Wraps,52,116.9,M3,125,170,185,200,,200,140,150,162.5,,162.5,210,220,230,,230,592.5,SBD,M,
1,István Magos,Hungary,Wraps,56,54.9,M4,56,110,120,-125,,120,80,85,-90,,85,160,170,175,,175,380,SBD,M,
1,Roman Mandík,Czechia,Wraps,55,73.5,M4,75,135,-145,-150,,135,95,100,105,,105,150,162.5,,,162.5,402.5,SBD,M,
2,Rory May,Scotland,Wraps,55,74.2,M4,75,80,95,115,,115,100,107.5,112.5,,112.5,100,115,,,115,342.5,SBD,M,
1,Pupis Zdenko,Slovakia,Wraps,59,79.9,M4,82.5,120,130,-135,,130,85,90,-95,,90,140,155,165,,165,385,SBD,M,
1,Les Attewell,England,Wraps,57,88.1,M4,90,220,-230,-230,,220,120,130,140,,140,270,280,287.5,,287.5,647.5,SBD,M,
2,István Gyuricska Jr,Hungary,Wraps,56,84.2,M4,90,180,-200,205,,205,140,-150,,,140,180,200,210,,210,555,SBD,M,
3,Carlos Roberto Baptista,Brazil,Wraps,56,88.8,M4,90,-150,150,160,,160,120,125,-130,,125,190,200,210,,210,495,SBD,M,
1,Vladimír Gosin,Israel,Wraps,58,92.1,M4,100,240,250,260,,260,160,-170,-170,,160,280,290,,,290,710,SBD,M,
2,Michael Burden,England,Wraps,58,99.3,M4,100,-160,160,-175,,160,100,-105,-105,,100,165,175,-185,,175,435,SBD,M,
1,Darren Walker,England,Wraps,55,101,M4,110,220,242.5,257.5,,257.5,130,142.5,152.5,,152.5,265,295,-305.5,,295,705,SBD,M,
2,František Nováček,Czechia,Wraps,58,107.8,M4,110,230,-240,-250,,230,180,-185,190,,190,240,250,,,250,670,SBD,M,
1,Zoltán Németh,Hungary,Wraps,56,110.3,M4,125,180,200,210,,210,120,140,150,,150,185,197.5,-205,,197.5,557.5,SBD,M,
1,Malina Pavel,Czechia,Wraps,63,58.8,M5,60,130,140,-150,,140,72.5,77.5,80,,80,90,107.5,115,,115,335,SBD,M,
1,Jozef Gabrhel,Slovakia,Wraps,63,72,M5,75,125,130,135,,135,90,95,-100,,95,150,160,165,,165,395,SBD,M,
1,Arthur Fantalis,Israel,Wraps,61,79.7,M5,82.5,130,140,145,,145,105,110,-112.5,,110,180,190,195,,195,450,SBD,M,
1,Juhani Kärkkäinen,Finland,Wraps,63,98.4,M5,100,170,185,200,,200,120,130,135,,135,210,230,240,,240,575,SBD,M,
2,Peter Herák,Slovakia,Wraps,62,94.7,M5,100,-180,180,210,,210,110,115,-120,,115,200,215,225,,225,550,SBD,M,
3,Dainis Polis,Latvia,Wraps,63,99.7,M5,100,-150,150,,,150,120,,,,120,170,,,,170,440,SBD,M,
1,Zsolt Kovács,Hungary,Wraps,60,126,M5,140,60,-80,80,,80,80,90,100,,100,140,150,160,,160,340,SBD,M,
1,Mieczysłąw Maczka,Germany,Wraps,69,85.5,M6,90,130,-145,150,,150,97.5,105,110,,110,135,155,,,155,415,SBD,M,
2,Jan Suda,Czechia,Wraps,67,88.9,M6,90,115,122.5,-127.5,,122.5,70,-75,75,,75,-145,152.5,157.5,,157.5,355,SBD,M,
1,Valentin Mashkovitch,Israel,Wraps,71,51.2,M7,56,-110,-110,110,,110,-45,45,-50,,45,145,155,160,,160,315,SBD,M,
1,Boriss Laisin,Estonia,Wraps,73,70.4,M7,75,100,105,110,,110,107.5,-110,-110,,107.5,160,172.5,182.5,,182.5,400,SBD,M,
1,Struzka Hynek,Czechia,Wraps,71,112.3,M7,125,135,-140,-140,,135,120,-130,-130,,120,150,172.5,,,172.5,427.5,SBD,M,
1,Valery Frenklakh,Israel,Wraps,80,64.1,M9,67.5,60,-70,-70,,60,40,,,,40,80,90,,,90,190,SBD,M,
1,Zak Vilém,Czechia,Wraps,81,82.7,M9,90,85,90,95,,95,75,-80,-80,,75,105,110,115,,115,285,SBD,M,
DQ,Patryk Federowicz,Poland,Wraps,13,46.3,T1,56,,,,,,,,,,,,,,,,,SBD,M,
1,Henrique Roselho,Portugal,Wraps,15,64,T1,67.5,145,152.5,-160,,152.5,80,-85,-85,,80,180,190,201,-205,201,433.5,SBD,M,
1,Benedek Dudás,Hungary,Wraps,15,74.3,T1,75,-130,140,150,,150,95,105,-110.5,,105,-180,185,195,,195,450,SBD,M,
1,Lubomír Fábry,Slovakia,Wraps,14,94.2,T1,100,-100,100,115,,115,70,80,85,,85,170,190,-200,,190,390,SBD,M,
1,Gvido Ozols,Latvia,Wraps,15,108.7,T1,110,180,-187.5,187.5,,187.5,80,85,-87.5,,85,185,192.5,197.5,,197.5,470,SBD,M,
1,Michal Kastner,Czechia,Wraps,15,115.5,T1,125,65,165,,,165,80,-100,-100,,80,150,170,-190,,170,415,SBD,M,
1,Vojtěch Svoboda,Czechia,Wraps,17,53.8,T2,56,140,160,-167.5,,160,80,-82.5,-82.5,,80,-165,-175,175,-185,175,415,SBD,M,
1,Faragó Máté,Hungary,Wraps,16,67.1,T2,67.5,165,-180,185,,185,105,-112.5,-112.5,,105,200,215,-225,,215,505,SBD,M,
1,Ondřej Ščuglík,Czechia,Wraps,17,85.4,T2,90,-270,270,290,,290,-155,155,-160,,155,240,-270,-270,,240,685,SBD,M,
2,Sipos Levente,Hungary,Wraps,17,89.4,T2,90,182.5,192.5,202.5,,202.5,107.5,-115,115,,115,217.5,230,240,,240,557.5,SBD,M,
3,Gergely Kőfalvi,Hungary,Wraps,17,89.4,T2,90,172.5,185,-192.5,,185,102.5,-107.5,-107.5,,102.5,220,232.5,-240,,232.5,520,SBD,M,
1,Zsolt Viktór Szabó,Hungary,Wraps,16,108.7,T2,110,190,200,-205,,200,125,130,-135,,130,190,205,-215,,205,535,SBD,M,
1,Péter Holéczy,Hungary,Wraps,17,118,T2,125,220,,,,220,125,135,-145,,135,225,,,,225,580,SBD,M,
2,Kornél Nagy,Hungary,Wraps,16,123.7,T2,125,-180,195,-205,,195,90,-100,-100,,90,180,195,215,,215,500,SBD,M,
1,Martin Bláha,Czechia,Wraps,17,128.5,T2,140,240,-275,-275,,240,160,-170,-170,,160,230,260,-275,,260,660,SBD,M,
1,Kristóf Goór,Hungary,Wraps,18,73.4,T3,75,185,192.5,197.5,,197.5,140,146,147.5,,147.5,195,205,212.5,,212.5,557.5,SBD,M,
2,Samuel Aleixo,Portugal,Wraps,18,73.5,T3,75,-190,-190,190,,190,110,-112.5,-112.5,,110,215,-222.5,-232.5,,215,515,SBD,M,
1,Petr Gerberg,Czechia,Wraps,19,79.7,T3,82.5,-210,210,,,210,115,125,132.5,,132.5,190,210,217.5,,217.5,560,SBD,M,
1,Daniel Soares,Portugal,Wraps,19,87.5,T3,90,195,202.5,-210,,202.5,130,-135,135,,135,-217.5,-230,230,,230,567.5,SBD,M,
2,Antonín Lejsek,Czechia,Wraps,18,88.5,T3,90,190,-210,210,,210,100,110,-112.5,,110,220,235,-250,,235,555,SBD,M,
3,Nikolas Pastier,Slovakia,Wraps,18,86.6,T3,90,180,-190,-190,,180,115,-120,120,,120,-200,200,-210,,200,500,SBD,M,
DQ,Michal Svoboda,Czechia,Wraps,18,88.4,T3,90,-270,-270,-280,,,-145,,,,,-280,,,,,,SBD,M,
1,Pavel Jonák,Czechia,Wraps,18,98.1,T3,100,220,240,-260,,240,140,150,165,,165,220,230,245,,245,650,SBD,M,
2,József Tibor Kozma,Hungary,Wraps,18,92.8,T3,100,187.5,-200,200,,200,95,-105,105,,105,195,215,-235,,215,520,SBD,M,
3,Truong An Vu,Czechia,Wraps,18,97.3,T3,100,195,215,-225,,215,105,115,-117.5,,115,170,190,-210,,190,520,SBD,M,
1,Andrej Kukura,Slovakia,Wraps,18,104.5,T3,110,200,210,220,,220,130,140,-150,,140,200,215,222.5,,222.5,582.5,SBD,M,
1,Lukács Dömény,Slovakia,Wraps,22,67,J,67.5,190,200,-210,,200,90,-100,100,,100,200,217.5,-225,,217.5,517.5,SBD,M,
2,Emmanuel Ceruetto,France,Wraps,20,65.8,J,67.5,-165,170,185,,185,85,-92.5,-92.5,,85,215,230,-232.5,,230,500,SBD,M,
3,Miroslav Marcinek,Slovakia,Wraps,20,66.3,J,67.5,-140,140,-155,,140,110,120,-125,,120,-190,-190,190,,190,450,SBD,M,
1,Martin Chudova,Czechia,Wraps,20,73.5,J,75,220,240,-255,,240,120,130,132.5,,132.5,220,230,-232.5,,230,602.5,SBD,M,
2,Adam Keřlík,Czechia,Wraps,22,72.3,J,75,210,-225,-225,,210,122.5,127.5,132.5,,132.5,220,235,-245,,235,577.5,SBD,M,
3,Patrik Oehm,Czechia,Wraps,22,73.5,J,75,170,-185,-185,,170,110,-115,-115,,110,200,220,-230,,220,500,SBD,M,
1,Jiří Bílek,Czechia,Wraps,23,82.2,J,82.5,260,280,292.5,,292.5,150,-160,-160,,150,280,300,310,,310,752.5,SBD,M,
2,Matěj Kubíček,Czechia,Wraps,23,82,J,82.5,240,270,285,,285,120,-130,-130,,120,270,-295,-295,,270,675,SBD,M,
3,Tamás Mandel,Hungary,Wraps,23,81.1,J,82.5,210,-225,-225,,210,145,155,-157.5,,155,210,225,230,,230,595,SBD,M,
4,Ákos Keppler,Hungary,Wraps,20,81.7,J,82.5,220,-232.5,232.5,,232.5,115,120,125,,125,215,230,-235,,230,587.5,SBD,M,
5,Gergő Kerekes,Hungary,Wraps,23,80.4,J,82.5,225,-240,240,,240,-112.5,117.5,122.5,,122.5,195,215,-242.5,,215,577.5,SBD,M,
6,Márton Körmöczi,Hungary,Wraps,23,80.6,J,82.5,180,190,-200,,190,137.5,-145,-145,,137.5,190,200,-210,,200,527.5,SBD,M,
7,Daniel Převrátil,Czechia,Wraps,21,77.2,J,82.5,170,-190,-190,,170,-115,115,-130,,115,200,-215,-215,,200,485,SBD,M,
8,Tamás Oládi,Hungary,Wraps,20,81.2,J,82.5,-180,-195,195,,195,85,92.5,-100,,92.5,185,195,-205,,195,482.5,SBD,M,
1,Bence Eklics,Hungary,Wraps,20,88.8,J,90,240,250,260,,260,150,160,165,,165,-290,290,300,,300,725,SBD,M,
2,Stephen Wium,England,Wraps,22,87.1,J,90,205,-217.5,-217.5,,205,132.5,140,142.5,,142.5,245,260,270,,270,617.5,SBD,M,
3,Jan Cafourek,Czechia,Wraps,21,87.2,J,90,220,-240,-240,,220,130,-140,-140,,130,250,-275,-280,,250,600,SBD,M,
4,Tamás Benedek Lóczi,Hungary,Wraps,22,84.8,J,90,190,202.5,-210,,202.5,-125,132.5,-135,,132.5,220,-240,-240,,220,555,SBD,M,
5,Miklós Bence Bartha,Hungary,Wraps,20,88.3,J,90,192.5,-202.5,202.5,,202.5,100,107.5,-112.5,,107.5,210,225,235,,235,545,SBD,M,
6,Jiří Šmolík,Czechia,Wraps,22,88,J,90,185,192.5,-200,,192.5,125,-132.5,-132.5,,125,205,215,225,,225,542.5,SBD,M,
1,Miklós Kelemen,Hungary,Wraps,23,99,J,100,260,280,-290,,280,165,180,-185,,180,265,287.5,-310,,287.5,747.5,SBD,M,
2,Gábor Hovanecz,Hungary,Wraps,20,98.6,J,100,235,255,-260,,255,160,-170,170,,170,235,245,250,,250,675,SBD,M,
3,László Baji,Hungary,Wraps,21,97.9,J,100,220,230,240,,240,120,130,-140,,130,220,240,-260,,240,610,SBD,M,
4,Matěj Bělina,Czechia,Wraps,20,97,J,100,180,200,-215,,200,100,-105,105,,105,210,235,250,,250,555,SBD,M,
5,Tomás Holes,Slovakia,Wraps,20,99.9,J,100,-180,-180,180,,180,140,150,-155,,150,200,210,-220,,210,540,SBD,M,
6,Levente Bekő,Hungary,Wraps,21,98,J,100,160,-170,-170,,160,-80,85,-92.5,,85,170,-180,,,170,415,SBD,M,
1,Gergő Hoffmann,Hungary,Wraps,22,109.8,J,110,250,-260,260,,260,165,172.5,-177.5,,172.5,300,310,315,,315,747.5,SBD,M,
2,Leonardo Dos Santos Felizari,Brazil,Wraps,23,107.2,J,110,250,265,275,,275,140,145,150,,150,310,320,-325,,320,745,SBD,M,
3,Beau Rogers,England,Wraps,23,101.6,J,110,230,252.5,257.5,,257.5,140,147.5,-150,,147.5,270,297.5,-305,,297.5,702.5,SBD,M,
4,Péter Forisek,Hungary,Wraps,22,101.5,J,110,120,140,,,140,105,110,-115,,110,170,-190,-190,,170,420,SBD,M,
1,Björgvin Sigurjonsson,Iceland,Wraps,23,114,J,125,280,-300,310,,310,165,180,-190,,180,270,290,310,,310,800,SBD,M,
2,Adam Egermaier,Czechia,Wraps,23,121.3,J,125,270,300,310,,310,170,180,-192.5,,180,270,290,305,,305,795,SBD,M,
3,Tomás Vidlicka,Slovakia,Wraps,20,125,J,125,225,-240,250,,250,110,-117.5,117.5,,117.5,235,250,-262.5,,250,617.5,SBD,M,
1,Petr Matěna,Czechia,Wraps,21,128.1,J,140,250,-265,270,,270,120,130,140,,140,250,265,-272.5,,265,675,SBD,M,
1,János Tamás Zsibrek,Hungary,Wraps,25,58.8,O,60,135,150,-155,,150,80,90,92.5,,92.5,170,190,200,,200,442.5,SBD,M,
1,Máté Kiss #1,Hungary,Wraps,24,66.6,O,67.5,195,205,215,,215,105,112.5,-117.5,,112.5,245,260,270,,270,597.5,SBD,M,
2,Dániel Rekeczki,Hungary,Wraps,29,66.2,O,67.5,200,-205,205,,205,140,150,-152.5,,150,220,230,-235,,230,585,SBD,M,
3,Töyry Elmeri,Finland,Wraps,25,67.3,O,67.5,222.5,235,,,235,110,-117.5,-117.5,,110,225,-242.5,-242.5,,225,570,SBD,M,
4,Viktor Nagy,Hungary,Wraps,28,66.1,O,67.5,180,195,-205,,195,110,-115,-115,,110,210,225,-230,,225,530,SBD,M,
1,Tichy Frantisek,Czechia,Wraps,29,74.1,O,75,200,-210,215,,215,130,140,142.5,,142.5,220,230,-235,,230,587.5,SBD,M,
2,Renátó Tóth,Hungary,Wraps,29,74.4,O,75,-215,215,-220,,215,125,132.5,-137.5,,132.5,235,-245,-247.5,,235,582.5,SBD,M,
3,Skabarczyk Grzegorz,Poland,Wraps,39,73.3,O,75,-190,205,217.5,,217.5,130,140,147.5,,147.5,-190,190,-210,,190,555,SBD,M,
4,Steven McDonald,Scotland,Wraps,28,73.3,O,75,185,-190,-190,,185,130,135,-137.5,,135,220,-232.5,-232.5,,220,540,SBD,M,
DQ,Zoltán Vódli,Hungary,Wraps,28,75,O,75,-220,-220,-220,,,,,,,,,,,,,,SBD,M,
1,Gergely Kuti,Hungary,Wraps,30,82.1,O,82.5,-290,290,305,,305,150,157.5,-160,,157.5,290,-305,-305,,290,752.5,SBD,M,
2,Markó Mari,Hungary,Wraps,29,81.6,O,82.5,240,-255,260,,260,175,182.5,185,,185,265,285,-300,,285,730,SBD,M,
3,Rory Porter,Scotland,Wraps,32,80.7,O,82.5,225,-252.5,260,,260,132.5,137.5,140,,140,225,250,-262.5,,250,650,SBD,M,
4,Tamás Sipos,Hungary,Wraps,37,82.5,O,82.5,215,225,-235,,225,130,137.5,142.5,,142.5,225,235,-245,,235,602.5,SBD,M,
5,Adam Strasser,Czechia,Wraps,26,81.7,O,82.5,200,220,-230,,220,140,147.5,-150,,147.5,220,-240,-240,,220,587.5,SBD,M,
6,Lajos Zsarnai,Hungary,Wraps,35,79.2,O,82.5,200,220,-240,,220,120,130,-140,,130,210,230,-240,,230,580,SBD,M,
7,Gábor Jádi,Hungary,Wraps,35,82,O,82.5,205,217.5,-225,,217.5,115,122.5,-130,,122.5,220,235,-245,,235,575,SBD,M,
8,Jack May #2,Scotland,Wraps,28,81.5,O,82.5,172.5,192.5,202.5,,202.5,122.5,132.5,-142.5,,132.5,195,212.5,220,,220,555,SBD,M,
9,Gordon McGuinness,Scotland,Wraps,32,79.1,O,82.5,185,205,-215,,205,110,122.5,-125,,122.5,205,222.5,-227.5,,222.5,550,SBD,M,
10,Diogo Durão,Portugal,Wraps,33,82.5,O,82.5,170,180,-190,,180,102.5,107.5,110,,110,230,-245,245,,245,535,SBD,M,
DQ,Miguel Pereira,Portugal,Wraps,25,80.3,O,82.5,-217.5,-222.5,-227.5,,,102.5,110,-115,,110,220,-232.5,232.5,,232.5,,SBD,M,
DQ,Niall Reddan,Ireland,Wraps,30,77.2,O,82.5,-245,-245,-255,,,,,,,,,,,,,,SBD,M,
1,Kornél Mengyi,Hungary,Wraps,26,85.8,O,90,310,320,,,320,185,187.5,-190,,187.5,280,300,-307.5,,300,807.5,SBD,M,
2,Gábor Somogyi #1,Hungary,Wraps,23,88,O,90,270,285,-290,,285,165,-175,175,,175,305,320,-330,,320,780,SBD,M,
3,Jože Šinkovec,Slovenia,Wraps,25,89.6,O,90,290,315,,,315,175,185,-190,,185,260,280,-300,,280,780,SBD,M,
4,Gavin Thomas,England,Wraps,40,86.9,O,90,205,210,-215,,210,180,-185,-185,,180,250,-257.5,-257.5,,250,640,SBD,M,
5,Anže Čož,Slovenia,Wraps,30,89.2,O,90,222.5,230,-235,,230,130,140,-145,,140,-270,270,-285,,270,640,SBD,M,
6,Zoltán Somi,Hungary,Wraps,24,90,O,90,210,220,235,,235,-135,140,150,,150,235,250,-260,,250,635,SBD,M,
7,András Márton,Hungary,Wraps,33,87.2,O,90,230,240,250,,250,120,130,-135,,130,240,250,-260,,250,630,SBD,M,
8,Filipovic Danek,Czechia,Wraps,25,89.6,O,90,225,235,-245,,235,145,-155,-155,,145,240,-250,,,240,620,SBD,M,
9,Daniel Siarkiewicz,Poland,Wraps,30,87.5,O,90,180,-200,-200,,180,130,135,-140,,135,180,200,-210,,200,515,SBD,M,
1,István Bakkancsos,Hungary,Wraps,29,97,O,100,270,282.5,,,282.5,185,192.5,197.5,,197.5,280,300,-305,,300,780,SBD,M,
2,Cerny Lukás,Czechia,Wraps,35,99.7,O,100,260,285,-300,,285,165,175,180,,180,270,285,300,,300,765,SBD,M,
3,Zelena Máté,Hungary,Wraps,30,96.9,O,100,230,250,262.5,,262.5,170,180,,,180,285,300,,,300,742.5,SBD,M,
4,Mátyás Végh,Hungary,Wraps,27,100,O,100,245,-255,255,,255,155,160,165,,165,260,270,280,,280,700,SBD,M,
5,Ferenc Bernáth,Hungary,Wraps,36,98.1,O,100,-230,230,-250,,230,170,175,-180,,175,230,240,242.5,,242.5,647.5,SBD,M,
6,Tamás Ősi,Hungary,Wraps,30,95.8,O,100,215,-227.5,230,,230,155,160,-165,,160,235,250,-257.5,,250,640,SBD,M,
7,Dr Sohajda Kristóf,Hungary,Wraps,30,92.5,O,100,175,190,-200,,190,112.5,122.5,-125,,122.5,182.5,190,200,,200,512.5,SBD,M,
8,Tamás Mihályi,Hungary,Wraps,25,95.5,O,100,180,-195,195,,195,100,-110,-110,,100,150,165,-180,,165,460,SBD,M,
1,Dione César Teodoro,Brazil,Wraps,31,109,O,110,355,385,-410,,385,195,210,-220,,210,325,360,385,,385,980,SBD,M,
2,Róbert Tumpek,Hungary,Wraps,30,105.4,O,110,330,355,-365,,355,180,185,190,,190,330,-355,355,,355,900,SBD,M,
3,Imre Lovász,Hungary,Raw,34,109.8,O,110,315,335,-340,,335,-162.5,167.5,-172.5,,167.5,335,371,-375,,371,873.5,SBD,M,
4,Csaba Kollár,Hungary,Wraps,25,108.2,O,110,265,282.5,300,,300,195,202.5,207.5,,207.5,295,310,322.5,,322.5,830,SBD,M,
5,Alexandre Saingery,France,Wraps,35,104.1,O,110,260,-275,275,,275,145,150,-152.5,,150,250,265,270,,270,695,SBD,M,
6,Scott Graham #4,Scotland,Raw,25,106.3,O,110,220,240,247.5,,247.5,135,150,160,,160,270,285,-300,,285,692.5,SBD,M,
7,Dhari Abbas,Kuwait,Raw,27,107,O,110,212.5,225,235,,235,130,-137.5,137.5,,137.5,240,260,272.5,,272.5,645,SBD,M,
8,Zoltán Patai,Hungary,Wraps,26,106.5,O,110,200,212.5,222.5,,222.5,130,142.5,147.5,,147.5,220,-240,250,,250,620,SBD,M,
1,Safarik Vlastimil,Czechia,Wraps,25,123.1,O,125,320,340,350,,350,210,-220,220,,220,290,310,-330,,310,880,SBD,M,
2,Mihály Horváth,Hungary,Wraps,24,115.3,O,125,300,310,320,,320,210,220,225,,225,310,-320,,,310,855,SBD,M,
3,Tibor Fülpesi,Hungary,Wraps,26,123.6,O,125,290,305,315,,315,205,-210,,,205,-315,320,-337.5,,320,840,SBD,M,
DQ,Connor McKechnie,Scotland,Wraps,24,112.9,O,125,250,-270,-275,,250,-170,-180,-180,,,-305,,,,,,SBD,M,
1,Drazen Filipovic,Montenegro,Wraps,36,136.7,O,140,300,315,-325,,315,-200,207.5,212.5,,212.5,320,-340,-340,,320,847.5,SBD,M,
2,Pavel Urbánek,Czechia,Wraps,29,129.2,O,140,290,310,-320,,310,210,-220,-220,,210,300,315,-327.5,,315,835,SBD,M,
3,Erki Malva,Estonia,Wraps,24,126.3,O,140,-250,250,270,,270,160,175,187.5,,187.5,250,265,275,,275,732.5,SBD,M,
4,Attila Szegi,Hungary,Wraps,47,134.6,O,140,255,265,272.5,,272.5,160,170,-175,,170,265,275,287.5,,287.5,730,SBD,M,
1,Sándor Varjú,Hungary,Wraps,23,153.1,O,140+,300,322.5,340,,340,200,207.5,212.5,,212.5,240,-255,-255,,240,792.5,SBD,M,
2,Benjamin Mastronardi,Australia,Wraps,34,170.9,O,140+,-250,250,265,,265,155,165,-175,,165,220,240,-260,,240,670,SBD,M,
1,Erika Molnár,Hungary,Multi-ply,18,47.2,T3,48,,,,,,40,-45,45,-50,45,,,,,,45,B,F,
1,Arabella Watson,Australia,Multi-ply,23,75.7,J,82.5,,,,,,85,-92.5,-92.5,,85,,,,,,85,B,F,
1,Tímea Kadenszki,Hungary,Multi-ply,35,62.9,O,67.5,,,,,,70,-75,75,,75,,,,,,75,B,F,
1,Eszter Polgár,Hungary,Multi-ply,37,73,O,75,,,,,,62.5,65,67.5,,67.5,,,,,,67.5,B,F,
1,Kristine Rathena,Latvia,Multi-ply,41,72.8,M1,75,,,,,,95,102.5,-110,,102.5,,,,,,102.5,B,F,
1,Dagmar Liptáková,Slovakia,Multi-ply,47,63.7,M2,67.5,,,,,,115,120,122.5,-125,122.5,,,,,,122.5,B,F,
1,Maczka Brigitte,Germany,Multi-ply,62,65.8,M5,67.5,,,,,,32.5,37.5,-40,,37.5,,,,,,37.5,B,F,
1,Edoardo Gondro Luiz,Brazil,Multi-ply,16,59.2,T2,60,,,,,,97.5,-105,-105,,97.5,,,,,,97.5,B,M,
1,Ferenc Busznyák,Hungary,Multi-ply,18,108.3,T3,110,,,,,,125,,,,125,,,,,,125,B,M,
1,Dávid Kökényesy,Hungary,Multi-ply,23,89.3,J,90,,,,,,115,135,-142.5,,135,,,,,,135,B,M,
1,Krysztof Wolszczak,Poland,Multi-ply,38,74,O,75,,,,,,170,185,-195,,185,,,,,,185,B,M,
DQ,Edgars Peterlēvics,Latvia,Multi-ply,37,87.7,O,90,,,,,,-260,-260,-260,,,,,,,,,B,M,
DQ,Dawid Deptuch,Poland,Multi-ply,36,89.9,O,90,,,,,,-240,-240,-240,,,,,,,,,B,M,
1,Zsolt Nándor Oláh,Hungary,Multi-ply,28,93.8,O,100,,,,,,160,-175,-175,,160,,,,,,160,B,M,
1,Imre Kadenszki,Hungary,Multi-ply,30,100.7,O,110,,,,,,-140,140,155,,155,,,,,,155,B,M,
1,József Somogyi,Hungary,Multi-ply,31,118.3,O,125,,,,,,-200,-200,200,,200,,,,,,200,B,M,
1,Alexandre Vaz,Brazil,Multi-ply,44,89.6,M1,90,,,,,,220,-235,-256,,220,,,,,,220,B,M,
1,Leandro de Souza,Brazil,Multi-ply,41,101.4,M1,110,,,,,,180,185,200,,200,,,,,,200,B,M,
DQ,Jozef Völgyák,Slovakia,Multi-ply,41,105.5,M1,110,,,,,,-175,-175,-175,,,,,,,,,B,M,
1,Zoltán Győri,Hungary,Multi-ply,48,99.8,M2,100,,,,,,190,205,-220,,205,,,,,,205,B,M,
1,Miloš Ćećanović,Montenegro,Multi-ply,45,103.6,M2,110,,,,,,190,205,210,,210,,,,,,210,B,M,
2,Andrei Kabantseff,Estonia,Multi-ply,46,103.7,M2,110,,,,,,170,-192.5,-192.5,,170,,,,,,170,B,M,
1,Oskars Zvarts,Latvia,Multi-ply,45,138.4,M2,140,,,,,,-260,-260,260,,260,,,,,,260,B,M,
1,Salamon Gábor,Hungary,Multi-ply,45,147.4,M2,140+,,,,,,160,195,210,,210,,,,,,210,B,M,
1,Roch Szumarowski-Plewa,Poland,Multi-ply,50,78.2,M3,82.5,,,,,,-120,120,,,120,,,,,,120,B,M,
1,László Baross,Hungary,Multi-ply,52,92.8,M3,100,,,,,,120,130,135,,135,,,,,,135,B,M,
1,Francisco Teles,Brazil,Multi-ply,54,106.6,M3,110,,,,,,170,185,-190,,185,,,,,,185,B,M,
1,Károly Németh,Hungary,Multi-ply,52,140.1,M3,140+,,,,,,150,175,,,175,,,,,,175,B,M,
1,Béla Kling,Hungary,Multi-ply,55,97.7,M4,100,,,,,,170,175,-182.5,,175,,,,,,175,B,M,
1,Kevin Maher,England,Multi-ply,62,102.4,M5,110,,,,,,-180,180,190,,190,,,,,,190,B,M,
1,Mieczysłąw Maczka,Germany,Multi-ply,69,86.2,M6,90,,,,,,95,-117.5,122.5,,122.5,,,,,,122.5,B,M,
1,József Sztanke,Hungary,Multi-ply,69,93.1,M6,100,,,,,,160,170,-180,,170,,,,,,170,B,M,
1,Péter Mihály,Slovakia,Multi-ply,65,158.3,M6,140+,,,,,,120,,,,120,,,,,,120,B,M,
DQ,László Jobbágy,Hungary,Multi-ply,76,78.1,M8,82.5,,,,,,-145,-145,-145,,,,,,,,,B,M,
1,Arabella Watson,Australia,Multi-ply,23,75.7,J,82.5,,,,,,,,,,,120,130,140,-150,140,140,D,F,
1,Jana Studnicková,Czechia,Multi-ply,29,73.7,O,75,,,,,,,,,,,90,100,-110,,100,100,D,F,
1,Brigitte Maczka,Germany,Multi-ply,62,65.8,M5,67.5,,,,,,,,,,,92.5,102.5,107.5,,107.5,107.5,D,F,
1,Hunor Hablicsek,Hungary,Multi-ply,16,69.3,T2,75,,,,,,,,,,,110,120,130,-135,130,130,D,M,
1,Alexander Kopálek,Slovakia,Multi-ply,16,80,T2,82.5,,,,,,,,,,,-150,150,165,,165,165,D,M,
1,Simon Dávid,Hungary,Multi-ply,18,74.8,T3,75,,,,,,,,,,,170,180,-190,,180,180,D,M,
1,Huba Hablicsek,Hungary,Multi-ply,25,65.2,O,67.5,,,,,,,,,,,160,175,-185,,175,175,D,M,
1,László Posnyák,Hungary,Multi-ply,30,81.1,O,82.5,,,,,,,,,,,170,190,-200,,190,190,D,M,
1,Peterlevics Edgars,Latvia,Multi-ply,37,87.7,O,90,,,,,,,,,,,250,257.5,-262.5,,257.5,257.5,D,M,
2,Ádám Paczuk,Hungary,Multi-ply,24,84.7,O,90,,,,,,,,,,,150,160,170,,170,170,D,M,
1,Mátyás Sándor Mészáros,Hungary,Multi-ply,28,98.3,O,100,,,,,,,,,,,260,275,285,,285,285,D,M,
2,Martin Studnička,Czechia,Multi-ply,30,95.7,O,100,,,,,,,,,,,260,282.5,-287.5,,282.5,282.5,D,M,
3,Károly Szuder,Slovakia,Multi-ply,36,96.1,O,100,,,,,,,,,,,270,280,-285,,280,280,D,M,
1,Darren Bennett,Ireland,Multi-ply,39,105.6,O,110,,,,,,,,,,,290,310,-321,,310,310,D,M,
1,Tamás Kurcz,Hungary,Multi-ply,34,124.6,O,125,,,,,,,,,,,270,295,-310,,295,295,D,M,
1,Andrew Cairney,Scotland,Multi-ply,44,129.6,M1,140,,,,,,,,,,,290,-310,-330,,290,290,D,M,
1,Konstantin Glok,Germany,Multi-ply,48,88.9,M2,90,,,,,,,,,,,150,165,170,,170,170,D,M,
1,Roland Póta,Hungary,Multi-ply,45,92.3,M2,100,,,,,,,,,,,270,-290,292.5,,292.5,292.5,D,M,
2,Grzegorz Drewniany,Poland,Multi-ply,46,98.8,M2,100,,,,,,,,,,,260,-292.5,,,260,260,D,M,
1,László Eck,Hungary,Multi-ply,45,101.4,M2,110,,,,,,,,,,,180,200,220,,220,220,D,M,
1,Norbert Hablicsek,Hungary,Multi-ply,48,114.5,M2,125,,,,,,,,,,,250,280,-300,,280,280,D,M,
1,Evandro Casa Grande,Brazil,Multi-ply,53,109,M3,110,,,,,,,,,,,280,300,305.5,,305.5,305.5,D,M,
2,Ivan Levický,Slovakia,Multi-ply,53,104.7,M3,110,,,,,,,,,,,285,-300,-305.5,,285,285,D,M,
1,Csaba Simon,Hungary,Multi-ply,55,82.3,M4,82.5,,,,,,,,,,,230,250,-265,,250,250,D,M,
DQ,Liam Beville,Ireland,Multi-ply,58,82.4,M4,82.5,,,,,,,,,,,-260,-260,-266,,,,D,M,
1,Greguš Milan,Czechia,Multi-ply,55,100.9,M4,110,,,,,,,,,,,-257.5,-257.5,257.5,,257.5,257.5,D,M,
1,Tibor Manzera,Hungary,Multi-ply,55,110.3,M4,125,,,,,,,,,,,155,170,180,,180,180,D,M,
1,Karol Kornel Repiský,Slovakia,Multi-ply,59,127.4,M4,140,,,,,,,,,,,210,220,,,220,220,D,M,
2,Imre Hajdú-Kemény,Hungary,Multi-ply,57,131,M4,140,,,,,,,,,,,130,-160,160,,160,160,D,M,
1,Aleksandr Romanichev,Israel,Multi-ply,60,55.4,M5,56,,,,,,,,,,,175,185,195,,195,195,D,M,
1,Lee Marshall,England,Multi-ply,64,109.7,M5,110,,,,,,,,,,,250,260,270,280,270,270,D,M,
1,Mieczysłąw Maczka,Germany,Multi-ply,69,86.2,M6,90,,,,,,,,,,,130,152.5,,,152.5,152.5,D,M,
1,Wrŏbel Wiesław,Poland,Multi-ply,66,97.7,M6,100,,,,,,,,,,,250,260,,,260,260,D,M,
1,Lothar Schulze,Germany,Multi-ply,73,83,M7,90,,,,,,,,,,,155,165,175,,175,175,D,M,
1,Serafim Roca Lima Filho,Brazil,Multi-ply,75,101.8,M8,110,,,,,,,,,,,120,140,-150,,140,140,D,M,
1,Arabella Watson,Australia,Multi-ply,23,75.7,J,82.5,140,-150,160,,160,,,,,,,,,,,160,S,F,
1,Tomáš Kunz,Czechia,Multi-ply,21,70.9,J,75,210,230,-250,,230,,,,,,,,,,,230,S,M,
1,Attila Horváth,Hungary,Multi-ply,20,89.1,J,90,221,230,240,245.5,240,,,,,,,,,,,240,S,M,
2,Pavel Janíček,Czechia,Multi-ply,21,83.6,J,90,200,220.5,235,245,235,,,,,,,,,,,235,S,M,
1,Adam Vokál,Czechia,Multi-ply,30,88.8,O,90,270,300,320,,320,,,,,,,,,,,320,S,M,
1,Darren Bennett,Ireland,Multi-ply,39,105.6,O,110,270,-302.5,,,270,,,,,,,,,,,270,S,M,
1,Dmytro Hotlashov,Ukraine,Multi-ply,38,127.9,O,140,230,250,-270,,250,,,,,,,,,,,250,S,M,
1,Francisco Ribeiro Soares,Brazil,Multi-ply,43,95.8,M1,100,-220,220,270,,270,,,,,,,,,,,270,S,M,
1,Andrew Cairney,Scotland,Multi-ply,44,129.6,M1,140,280,,,,280,,,,,,,,,,,280,S,M,
1,Grzegorz Drewniany,Poland,Multi-ply,46,98.8,M2,100,240,250,-260,,250,,,,,,,,,,,250,S,M,
1,Norbert Hablicsek,Hungary,Multi-ply,49,114.5,M2,125,250,280,-301,-301,280,,,,,,,,,,,280,S,M,
1,Vladimír Gosin,Israel,Multi-ply,58,93.4,M4,100,280,300,305,,305,,,,,,,,,,,305,S,M,
1,Radoslav Radusinović,Croatia,Multi-ply,55,122.2,M4,125,340,350,-362.5,,350,,,,,,,,,,,350,S,M,
2,Tibor Manzera,Hungary,Multi-ply,55,110.3,M4,125,100,,,,100,,,,,,,,,,,100,S,M,
1,Mieczysłąw Maczka,Germany,Multi-ply,69,86.2,M6,90,130,,,,130,,,,,,,,,,,130,S,M,
1,David Thomas #4,England,Multi-ply,72,99,M7,100,120,-130,,,120,,,,,,,,,,,120,S,M,
1,Vanda Savanyu,Hungary,Unlimited,13,73.6,T1,75,,,,,,80,90,-100,-100,90,,,,,,90,B,F,
1,Klaudia Savanyu,Hungary,Unlimited,18,55.8,T3,56,,,,,,-70,-75,75,,75,,,,,,75,B,F,
1,Tál Lívia Némethné,Hungary,Unlimited,51,67.2,M3,67.5,,,,,,-60,60,,,60,,,,,,60,B,F,
1,János Bence Savanyu,Hungary,Unlimited,15,73.5,T1,75,,,,,,-85,85,95,,95,,,,,,95,B,M,
1,Dániel Oláh,Hungary,Unlimited,25,89.9,O,90,,,,,,310,330,335,-342.5,335,,,,,,335,B,M,
1,Richárd Buda,Hungary,Unlimited,30,133.9,O,140,,,,,,455,475,482.5,-490,482.5,,,,,,482.5,B,M,
DQ,Lajos Biró,Hungary,Unlimited,27,143.3,O,140+,,,,,,-285,-285,-285,,,,,,,,,B,M,
1,David McGuinness,Ireland,Unlimited,44,98.6,M1,100,,,,,,285,300,,,300,,,,,,300,B,M,
1,Attila Marosi,Hungary,Unlimited,50,96.8,M3,100,,,,,,250,-260,260,,260,,,,,,260,B,M,
1,Ferenc Balázs,Hungary,Unlimited,53,106.2,M3,110,,,,,,307.5,312.5,-320,-320,312.5,,,,,,312.5,B,M,
1,Károly Németh,Hungary,Unlimited,52,140.1,M3,140+,,,,,,240,250,,,250,,,,,,250,B,M,
1,Radoslav Radusinović,Croatia,Unlimited,55,122.2,M4,125,,,,,,-300,300,320,-330,320,,,,,,320,B,M,
1,Soren Bertelson,Denmark,Unlimited,62,99.7,M5,100,,,,,,270,277.5,-285,,277.5,,,,,,277.5,B,M,
DQ,David Thomas #4,England,Unlimited,72,99,M7,100,,,,,,-110,-117.5,-117.5,,,,,,,,,B,M,
1,Millie Rose Jackson,Australia,Wraps,15,69.5,T1,75,100,-110,-115,,100,,,,,,,,,,,100,S,F,
1,Eszter Kendra Gunczer,Hungary,Wraps,18,56.5,T3,60,107.5,115,-120,,115,,,,,,,,,,,115,S,F,
1,Simona Rančev,Czechia,Wraps,21,59.6,J,60,95,102.5,-112.5,,102.5,,,,,,,,,,,102.5,S,F,
1,Éva Smetanová,Czechia,Wraps,21,74.8,J,75,105,115,120,,120,,,,,,,,,,,120,S,F,
1,Tímea Fekete-Horváth,Hungary,Wraps,38,51.9,O,52,70,80,-87.5,,80,,,,,,,,,,,80,S,F,
1,Cintia Csordás,Hungary,Wraps,28,56,O,56,120,125,-132.5,,125,,,,,,,,,,,125,S,F,
1,Aimee Brown,Scotland,Wraps,28,74.1,O,75,165,172.5,180,-183,180,,,,,,,,,,,180,S,F,
1,Dóra Balogh,Hungary,Wraps,28,77,O,82.5,165,170,172.5,,172.5,,,,,,,,,,,172.5,S,F,
1,Michelle Del Guzzo,Australia,Wraps,44,81.9,M1,82.5,-155,155,170,-185,170,,,,,,,,,,,170,S,F,
1,Ágnes Papp,Hungary,Wraps,45,48,M2,48,50,60,-70,,60,,,,,,,,,,,60,S,F,
1,Mónika Bazsó,Hungary,Wraps,49,80.5,M2,82.5,172.5,-181,181,190.5,181,,,,,,,,,,,181,S,F,
1,Heather Gae Ostler,Australia,Wraps,46,98.5,M2,110,90,-100,-100,,90,,,,,,,,,,,90,S,F,
1,Jana Janoušková,Czechia,Wraps,63,58.3,M5,60,30,-40,40,,40,,,,,,,,,,,40,S,F,
1,Christine Henwood,New Zealand,Wraps,64,73.9,M5,75,160,-170,170,,170,,,,,,,,,,,170,S,F,
1,Péter Holéczy,Hungary,Wraps,17,120,T2,125,240,250,260,,260,,,,,,,,,,,260,S,M,
1,Pavel Janíček,Czechia,Wraps,21,83.6,J,90,175,195,205,,205,,,,,,,,,,,205,S,M,
1,Jiří Šmolík,Czechia,Wraps,22,92.1,J,100,180,190,-200,,190,,,,,,,,,,,190,S,M,
1,Petr Matěna,Czechia,Wraps,21,129.2,J,140,240,260,275,,275,,,,,,,,,,,275,S,M,
1,László Posnyák,Hungary,Wraps,30,81.1,O,82.5,140,145,-150,,145,,,,,,,,,,,145,S,M,
DQ,Ádám Paczuk,Hungary,Wraps,24,84.7,O,90,-150,-150,-150,,,,,,,,,,,,,,S,M,
1,Károly Szuder,Hungary,Wraps,36,96.1,O,100,240,-250,-260,,240,,,,,,,,,,,240,S,M,
2,Martin Studnička,Czechia,Wraps,30,95.7,O,100,215,-227.5,227.5,,227.5,,,,,,,,,,,227.5,S,M,
1,Alexandre Saingery,France,Wraps,35,106.2,O,110,250,260,-270,,260,,,,,,,,,,,260,S,M,
2,Krisztián Németh,Hungary,Wraps,27,110,O,110,220,230,240,,240,,,,,,,,,,,240,S,M,
1,Gábor Kocsis,Hungary,Wraps,31,133.3,O,140,325,340,350,,350,,,,,,,,,,,350,S,M,
2,Dmytro Hotlashov,Ukraine,Wraps,38,127.9,O,140,260,270,-280,,270,,,,,,,,,,,270,S,M,
1,Benjamin Mastronardi,Australia,Wraps,34,169.4,O,140+,-250,250,-270,,250,,,,,,,,,,,250,S,M,
1,Francisco Ribeiro Soares,Brazil,Wraps,43,95.8,M1,100,200,,,,200,,,,,,,,,,,200,S,M,
2,Ramaz Gabaidze,Georgia,Wraps,41,100,M1,100,-170,-170,180,,180,,,,,,,,,,,180,S,M,
1,András Tóth,Hungary,Wraps,40,118.1,M1,125,120,130,142.5,,142.5,,,,,,,,,,,142.5,S,M,
1,Andrew Cairney,Scotland,Wraps,44,129.6,M1,140,290,,,,290,,,,,,,,,,,290,S,M,
1,Fábio Corrêa De Lyra,Brazil,Wraps,49,88.6,M2,90,190,205,218.5,,218.5,,,,,,,,,,,218.5,S,M,
1,Tamás Deli,Hungary,Wraps,46,104.1,M2,110,-245,245,267,,267,,,,,,,,,,,267,S,M,
2,Ákos Takács,,Wraps,47,106.3,M2,110,200,215,225,,225,,,,,,,,,,,225,S,M,
1,Róbert Pintér,Hungary,Wraps,45,116.3,M2,125,-205,212.5,217.5,,217.5,,,,,,,,,,,217.5,S,M,
1,József Török,Hungary,Wraps,53,88.3,M3,90,130,-140,140,,140,,,,,,,,,,,140,S,M,
1,Datuna Mzhavanadze,Georgia,Wraps,51,107,M3,110,200,225,-240,,225,,,,,,,,,,,225,S,M,
1,Tamás Szabó,Hungary,Wraps,52,116,M3,125,175,190,205,,205,,,,,,,,,,,205,S,M,
1,László Jantek,Hungary,Wraps,57,81.8,M4,82.5,-200,200,-220,,200,,,,,,,,,,,200,S,M,
1,Greguš Milan,Czechia,Wraps,55,100.9,M4,110,255,266,270,,270,,,,,,,,,,,270,S,M,
1,Zoltán Németh,Hungary,Wraps,56,110.8,M4,125,185,195,200,205,200,,,,,,,,,,,200,S,M,
1,Zsolt Kovács,Hungary,Wraps,60,125.9,M5,140,60,80,100,120,100,,,,,,,,,,,100,S,M,
1,Mieczysłąw Maczka,Germany,Wraps,69,86.2,M6,90,125,145,,,145,,,,,,,,,,,145,S,M,
1,Anna Kubaszewska,Poland,Raw,28,55.3,O,56,,,,,,75,80,-82.5,,80,,,,,,80,B,F,
1,Kristina Hasáková,Slovakia,Raw,13,56.2,T1,60,,,,,,-40,40,-45,,40,,,,,,40,B,F,
1,Dalma Kovács,Hungary,Raw,15,70.9,T1,75,,,,,,52.5,62.5,65,,65,,,,,,65,B,F,
2,Vanda Savanyu,Hungary,Raw,14,73.5,T1,75,,,,,,57.5,62.5,65,,65,,,,,,65,B,F,
3,Millie Rose Jackson,Australia,Raw,15,69.2,T1,75,,,,,,55,-62.5,-62.5,,55,,,,,,55,B,F,
1,Brigitta Rékási,Hungary,Raw,17,50.8,T2,52,,,,,,50,52.5,55,,55,,,,,,55,B,F,
1,Vivien Bodó,Hungary,Raw,17,80,T2,82.5,,,,,,52.5,57.5,-62.5,,57.5,,,,,,57.5,B,F,
1,Noémi Magura,Hungary,Raw,17,86.6,T2,90,,,,,,47.5,52.5,57.5,61,57.5,,,,,,57.5,B,F,
1,Erika Molnár,Hungary,Raw,18,47.1,T3,48,,,,,,37.5,-40,40,42.5,40,,,,,,40,B,F,
1,Klaudia Savanyu,Hungary,Raw,18,55.7,T3,56,,,,,,45,50,52.5,,52.5,,,,,,52.5,B,F,
1,Szandra Zachariás,Hungary,Raw,19,58.1,T3,60,,,,,,65,70,-72.5,,70,,,,,,70,B,F,
2,Zsófia Nagy,Hungary,Raw,18,58.4,T3,60,,,,,,57.5,-60,-60,,57.5,,,,,,57.5,B,F,
1,Júlia Nagy,Hungary,Raw,18,65.3,T3,67.5,,,,,,50,52.5,55,,55,,,,,,55,B,F,
1,Ilona Czinkó,Hungary,Raw,19,68.8,T3,75,,,,,,45,50,-57.5,,50,,,,,,50,B,F,
1,Ilka Németh,Hungary,Raw,19,117.3,T3,110+,,,,,,60,65,-70,,65,,,,,,65,B,F,
1,Marianna Csonki,Hungary,Raw,32,50.4,O,52,,,,,,70,72.5,-75,,72.5,,,,,,72.5,B,F,
2,Tímea Fekete-Horváth,Hungary,Raw,38,54.2,O,56,,,,,,-50,50,-55,,50,,,,,,50,B,F,
1,Anita Nagy,Hungary,Raw,49,57.3,O,60,,,,,,75,80,-87.5,,80,,,,,,80,B,F,
1,Gyöngyi Herczeg,Hungary,Raw,30,66.7,O,67.5,,,,,,97.5,102.5,105,,105,,,,,,105,B,F,
1,Viktória Gombás,Hungary,Raw,35,76.4,O,82.5,,,,,,55,60,-65,,60,,,,,,60,B,F,
1,Barbara Mocsár,Hungary,Raw,37,91.5,O,110,,,,,,90,100,-102.5,,100,,,,,,100,B,F,
1,Mária Köteles,Hungary,Raw,30,171.7,O,110+,,,,,,120,130,-140.5,,130,,,,,,130,B,F,
1,Edit Gombos-Borka,Hungary,Raw,43,65.9,M1,67.5,,,,,,70,75,-80,,75,,,,,,75,B,F,
1,Beáta Szalay,Hungary,Raw,43,73.8,M1,75,,,,,,70,75,77.5,,77.5,,,,,,77.5,B,F,
1,Ilona Simon,Hungary,Raw,44,80.7,M1,82.5,,,,,,80,90,-97.5,,90,,,,,,90,B,F,
1,Tetiana Dudnyk,Ukraine,Raw,40,87.7,M1,90,,,,,,112.5,-120,-120,,112.5,,,,,,112.5,B,F,
1,Zsuzsanna Kertész,Hungary,Raw,42,91.9,M1,110,,,,,,80,-85,92.5,,92.5,,,,,,92.5,B,F,
2,Mariann Tóth,Hungary,Raw,44,98,M1,110,,,,,,87.5,-92.5,-92.5,,87.5,,,,,,87.5,B,F,
1,Sarah Allen #1,England,Raw,45,51.7,M2,52,,,,,,32.5,37.5,-40,,37.5,,,,,,37.5,B,F,
1,Gőz Erika Rékásiné,Hungary,Raw,47,54.8,M2,56,,,,,,57.5,-60,-60,,57.5,,,,,,57.5,B,F,
1,Daniela Poláková,Czechia,Raw,47,59,M2,60,,,,,,95,100,102.5,-105,102.5,,,,,,102.5,B,F,
2,Ruba Mónika Hollóné,Hungary,Raw,46,58.7,M2,60,,,,,,62.5,67.5,-70,,67.5,,,,,,67.5,B,F,
1,Erika Molnár,Hungary,Raw,46,65.2,M2,67.5,,,,,,70,75,77.5,,77.5,,,,,,77.5,B,F,
1,Mónika Bazsó,Hungary,Raw,49,81,M2,82.5,,,,,,-112.5,112.5,122.5,-128,122.5,,,,,,122.5,B,F,
1,Andrea Csuti,Hungary,Raw,48,86.3,M2,90,,,,,,60,65,-67.5,,65,,,,,,65,B,F,
1,Heather Ostler,Australia,Raw,46,100,M2,110,,,,,,55,60,65,,65,,,,,,65,B,F,
1,Irina Pomerantsev,Israel,Raw,53,43.4,M3,44,,,,,,55,57.5,60,,60,,,,,,60,B,F,
DQ,Ester Cichá,Czechia,Raw,53,54.1,M3,56,,,,,,-57.5,-60,-62.5,,,,,,,,,B,F,
1,Ilona Egri,Hungary,Raw,50,59.6,M3,60,,,,,,55,57.5,-60,,57.5,,,,,,57.5,B,F,
1,Mónika Molnár,Hungary,Raw,50,69.3,M3,75,,,,,,47.5,52.5,55,,55,,,,,,55,B,F,
2,Klaudia Tanczos,Slovakia,Raw,50,74.3,M3,75,,,,,,47.5,50,52.5,,52.5,,,,,,52.5,B,F,
1,Natalja Tsudinova,,Raw,55,54.2,M4,56,,,,,,35,40,42.5,,42.5,,,,,,42.5,B,F,
1,Etelka Tövisháti,Hungary,Raw,57,57.8,M4,60,,,,,,60,65,67.5,-70,67.5,,,,,,67.5,B,F,
1,Mária Hegedűs,Hungary,Raw,58,66.9,M4,67.5,,,,,,45,50,52.5,,52.5,,,,,,52.5,B,F,
1,Leena Stålstedt,Finland,Raw,55,74.2,M4,75,,,,,,80,-87.5,-87.5,,80,,,,,,80,B,F,
1,Jana Janoušková,Czechia,Raw,63,58,M5,60,,,,,,30,-35,-35,,30,,,,,,30,B,F,
1,Brigitte Maczka,Germany,Raw,62,66,M5,67.5,,,,,,32.5,-37.5,,,32.5,,,,,,32.5,B,F,
1,Christine Henwood,New Zealand,Raw,64,74.6,M5,75,,,,,,90,95.5,97.5,,97.5,,,,,,97.5,B,F,
1,Flóra Kosztin,Hungary,Raw,67,64.7,M6,67.5,,,,,,100,110,112.5,115.5,112.5,,,,,,112.5,B,F,
1,Donát Ferku,Hungary,Raw,14,52.7,T1,56,,,,,,85,90,95,,95,,,,,,95,B,M,
1,Dmytro Kovtoniuk,Ukraine,Raw,15,64.5,T1,67.5,,,,,,70,75,-82.5,,75,,,,,,75,B,M,
1,Zénó Czinkó,Hungary,Raw,14,81.8,T1,82.5,,,,,,50,60,70,,70,,,,,,70,B,M,
2,Mark Lutsyshyn,Ukraine,Raw,14,80.6,T1,82.5,,,,,,55,62.5,-70,,62.5,,,,,,62.5,B,M,
1,Nimród Nádasdi,Hungary,Raw,14,83.5,T1,90,,,,,,105,-110,-110,,105,,,,,,105,B,M,
1,Lubomír Fábry,Slovakia,Raw,14,92.6,T1,100,,,,,,75,,,,75,,,,,,75,B,M,
1,Erik Oláh,Hungary,Raw,17,58.9,T2,60,,,,,,120,-125,-125,,120,,,,,,120,B,M,
1,Edoardo Gondro Luiz,Brazil,Raw,16,61.4,T2,67.5,,,,,,80,85,-90,,85,,,,,,85,B,M,
1,Áron Baráth,Hungary,Raw,17,70.7,T2,75,,,,,,137.5,146,147.5,-150,147.5,,,,,,147.5,B,M,
2,Andrii Viazkov,Ukraine,Raw,17,75,T2,75,,,,,,100,105,107.5,,107.5,,,,,,107.5,B,M,
1,Martin Varga,Hungary,Raw,16,78,T2,82.5,,,,,,130,135,-140,,135,,,,,,135,B,M,
2,Dániel Sándor,Hungary,Raw,16,79.2,T2,82.5,,,,,,110,-115,115,,115,,,,,,115,B,M,
1,Marcell Tornyos,Hungary,Raw,16,87.3,T2,90,,,,,,120,127.5,135,,135,,,,,,135,B,M,
2,Jaroslav Novák,Czechia,Raw,17,87.9,T2,90,,,,,,122.5,127.5,130,,130,,,,,,130,B,M,
1,Bence Kristóf Fodor,Hungary,Raw,17,99,T2,100,,,,,,130,135,140,,140,,,,,,140,B,M,
2,Ádám Porteleki,Hungary,Raw,17,98.1,T2,100,,,,,,120,127.5,-140,,127.5,,,,,,127.5,B,M,
1,Balazs Voros,Hungary,Raw,17,119.1,T2,125,,,,,,220,230,-240,,230,,,,,,230,B,M,
1,Kristóf Szalai,Hungary,Raw,17,136.9,T2,140,,,,,,130,140,-150,,140,,,,,,140,B,M,
1,Petar Stijopevic,Montenegro,Raw,19,58.9,T3,60,,,,,,105,118,120,122.5,120,,,,,,120,B,M,
1,Adrián Györgyi,Hungary,Raw,19,65.7,T3,67.5,,,,,,130,135,142.5,145,142.5,,,,,,142.5,B,M,
1,Mattia Mariani,,Raw,19,72.9,T3,75,,,,,,87.5,95,-100,,95,,,,,,95,B,M,
DQ,Mirko Ricci,Italy,Raw,18,69.5,T3,75,,,,,,-100,-100,-100,,,,,,,,,B,M,
1,Dóró Bence,Hungary,Raw,19,79.3,T3,82.5,,,,,,140,145,-150,,145,,,,,,145,B,M,
2,Richárd Gazdafi,Hungary,Raw,18,80.9,T3,82.5,,,,,,130,-135,135,,135,,,,,,135,B,M,
1,Marcell Lázár,Hungary,Raw,19,88.8,T3,90,,,,,,145,150,155,,155,,,,,,155,B,M,
2,Zapletal Tadeás,Czechia,Raw,19,83,T3,90,,,,,,125,130,-140,,130,,,,,,130,B,M,
3,Levente Árvai,Hungary,Raw,18,89.4,T3,90,,,,,,100,105,-112.5,,105,,,,,,105,B,M,
1,Ákos Pabar,Hungary,Raw,19,98.1,T3,100,,,,,,-155,155,160,,160,,,,,,160,B,M,
1,Ferenc Busznyák,Hungary,Raw,18,108.6,T3,110,,,,,,110,120,130,,130,,,,,,130,B,M,
1,Lilla Adamik,Hungary,Raw,14,40.5,T1,44,,,,,,,,,,,60,71,72.5,75,72.5,72.5,D,F,
1,Mezecka Diana,Latvia,Raw,15,60,T1,60,,,,,,,,,,,-115,-115,115,,115,115,D,F,
1,Martina Nagy,Hungary,Raw,15,65,T1,67.5,,,,,,,,,,,60,62.5,65,,65,65,D,F,
1,Emilia Kasprowicz,Poland,Raw,13,74.7,T1,75,,,,,,,,,,,117.5,122.5,127.5,-130,127.5,127.5,D,F,
2,Milllie Rose Jackson,Australia,Raw,15,69.2,T1,75,,,,,,,,,,,100,110,-120,,110,110,D,F,
1,Georgina Hazenfratz,Hungary,Raw,17,53.1,T2,56,,,,,,,,,,,105,112.5,-115,,112.5,112.5,D,F,
1,Luca Lukács,Hungary,Raw,16,59.8,T2,60,,,,,,,,,,,100,110,122.5,,122.5,122.5,D,F,
DQ,Lara Lepri,Italy,Raw,17,65,T2,67.5,,,,,,,,,,,-120,-127.5,-127.5,,,,D,F,
1,Vivien Bodó,Hungary,Raw,17,80,T2,82.5,,,,,,,,,,,110,120,130,,130,130,D,F,
1,Noémi Magura,Hungary,Raw,17,86.6,T2,90,,,,,,,,,,,120,132.5,142.5,144,142.5,142.5,D,F,
1,Francesca Tedesco,Italy,Raw,19,50.9,T3,52,,,,,,,,,,,110,-115,125,,125,125,D,F,
2,Eliška Novotná,Czechia,Raw,19,51.5,T3,52,,,,,,,,,,,105,115,-122.5,,115,115,D,F,
1,Tereza Pivoňková,Czechia,Raw,18,65.8,T3,67.5,,,,,,,,,,,155,165,-170,,165,165,D,F,
2,Petra Patai,Hungary,Raw,19,67.5,T3,67.5,,,,,,,,,,,115,125,135,,135,135,D,F,
1,Ilona Czinkó,Hungary,Raw,19,68.8,T3,75,,,,,,,,,,,115,125,135,,135,135,D,F,
1,Tereza Šimková,Czechia,Raw,19,78.4,T3,82.5,,,,,,,,,,,150,160,-165,,160,160,D,F,
1,Ilka Németh,Hungary,Raw,19,117.3,T3,110+,,,,,,,,,,,130,-142.5,-145,,130,130,D,F,
1,Simona Rančev,Czechia,Raw,21,59.9,J,60,,,,,,,,,,,110,120,130,,130,130,D,F,
1,Dóra Rita Horváth,Hungary,Raw,20,63.3,J,67.5,,,,,,,,,,,125,135,142.5,,142.5,142.5,D,F,
DQ,Gioia Scarselletta,Italy,Raw,20,62.6,J,67.5,,,,,,,,,,,-125,-135,-135,,,,D,F,
1,Rebeka Makkai,Hungary,Raw,22,127,J,110+,,,,,,,,,,,120,130,140,145,140,140,D,F,
1,Kinga Kecskeméti,Hungary,Raw,34,42.9,O,44,,,,,,,,,,,110,120,125,126,125,125,D,F,
DQ,Marianna Csonki,Hungary,Raw,32,50.4,O,52,,,,,,,,,,,,,,,,,D,F,
1,Barbara Berta,Hungary,Raw,27,53.3,O,56,,,,,,,,,,,-100,105,110,,110,110,D,F,
2,Vanda Szalai,Hungary,Raw,17,53.7,O,56,,,,,,,,,,,92.5,-100,-100,,92.5,92.5,D,F,
1,Bettina Patyi,Hungary,Raw,28,58.4,O,60,,,,,,,,,,,125,135,140,,140,140,D,F,
1,Gyöngyi Herczeg,Hungary,Raw,30,66.7,O,67.5,,,,,,,,,,,155,162.5,167.5,,167.5,167.5,D,F,
1,Andrea Pál-Kása,Hungary,Raw,38,73.4,O,75,,,,,,,,,,,180,190,200,,200,200,D,F,
2,Aimee Brown,Scotland,Raw,28,74.9,O,75,,,,,,,,,,,170,180,185,,185,185,D,F,
1,Veronika Strolená,Czechia,Raw,38,75.6,O,82.5,,,,,,,,,,,152.5,162.5,172.5,,172.5,172.5,D,F,
2,Dóra Balogh,Hungary,Raw,28,76.9,O,82.5,,,,,,,,,,,152.5,157.5,162.5,,162.5,162.5,D,F,
1,Varga Éva Petrovicsné,Hungary,Raw,33,86,O,90,,,,,,,,,,,130,-142.5,-142.5,,130,130,D,F,
1,Viktória Sebestyén,Hungary,Raw,44,61,M1,67.5,,,,,,,,,,,115,120,125,,125,125,D,F,
1,Michelle Del Guzzo,Australia,Raw,44,81.9,M1,82.5,,,,,,,,,,,175,187.5,-192.5,,187.5,187.5,D,F,
2,Ilona Simon,Hungary,Raw,44,80.7,M1,82.5,,,,,,,,,,,170,185,-192.5,,185,185,D,F,
3,Ana Božović,Montenegro,Raw,41,76,M1,82.5,,,,,,,,,,,135,150,-170,,150,150,D,F,
1,Almira Lizde,Bosnia and Herzegovina,Raw,41,87.6,M1,90,,,,,,,,,,,210,225,235,,235,235,D,F,
1,Anita Melinda Danicser,Hungary,Raw,44,94,M1,110,,,,,,,,,,,140,-150,-150,-150,140,140,D,F,
1,Sarah Allen #1,England,Raw,45,51.7,M2,52,,,,,,,,,,,85,-95,-95,,85,85,D,F,
1,Tamásné Györök,Hungary,Raw,49,53.1,M2,56,,,,,,,,,,,115,120,132.5,,132.5,132.5,D,F,
1,Daniela Poláková,Czechia,Raw,47,59,M2,60,,,,,,,,,,,140,-160,161,,161,161,D,F,
1,Dragomir Dóra Stáhlné,Hungary,Raw,46,65.6,M2,67.5,,,,,,,,,,,130,135,140,,140,140,D,F,
2,Ildikó Barna,Hungary,Raw,48,60.6,M2,67.5,,,,,,,,,,,120,125,130,,130,130,D,F,
1,Mónika Bazsó,Hungary,Raw,49,81,M2,82.5,,,,,,,,,,,185,195,-206,,195,195,D,F,
2,Melinda Derdák,Hungary,Raw,48,82.2,M2,82.5,,,,,,,,,,,120,130,-140,,130,130,D,F,
1,Éva Manzera,Hungary,Raw,46,83.1,M2,90,,,,,,,,,,,150,170,-180.5,,170,170,D,F,
1,Heather Ostler,Australia,Raw,46,100,M2,110,,,,,,,,,,,100,115,-127.5,-130,115,115,D,F,
1,Judit Poliák,Hungary,Raw,50,50.1,M3,52,,,,,,,,,,,80,85,90,,90,90,D,F,
1,Ester Cichá,Czechia,Raw,53,54.1,M3,56,,,,,,,,,,,117.5,125,132.5,,132.5,132.5,D,F,
1,Klaudia Tanczos,Slovakia,Raw,50,74.3,M3,75,,,,,,,,,,,105,-112.5,-112.5,,105,105,D,F,
1,Natalja Tsudinova,Estonia,Raw,55,54.2,M4,56,,,,,,,,,,,60,70,77.5,80,77.5,77.5,D,F,
1,Anikó Csonka,Hungary,Raw,55,61.2,M4,67.5,,,,,,,,,,,145,155,160,162.5,160,160,D,F,
2,Lesley Jayne Thomas,England,Raw,57,65.6,M4,67.5,,,,,,,,,,,145,152.5,160,,160,160,D,F,
1,Leena Stålstedt,Finland,Raw,55,74.2,M4,75,,,,,,,,,,,115,127.5,137.5,,137.5,137.5,D,F,
1,Jana Janoušková,Czechia,Raw,63,58,M5,60,,,,,,,,,,,70,80,85,,85,85,D,F,
1,Brigitte Maczka,Germany,Raw,62,66,M5,67.5,,,,,,,,,,,92.5,102.5,,,102.5,102.5,D,F,
1,Christine Henwood,New Zealand,Raw,64,74.6,M5,75,,,,,,,,,,,185,190,,,190,190,D,F,
1,Květuše Baranovičová,Slovakia,Raw,70,60.9,M7,67.5,,,,,,,,,,,70,80,90,,90,90,D,F,
1,Katalin Rohrmann,Hungary,Raw,70,81.5,M7,82.5,,,,,,,,,,,110,115,-120,,115,115,D,F,
1,Gábor Palásti,Hungary,Raw,63,113,M5,125,,,,,,,,,,,230,250,260,,260,260,D,M,
1,Illés Rácz,Hungary,Raw,14,64.9,T1,67.5,,,,,,,,,,,115,120,125,,125,125,D,M,
2,Dmytro Kovtoniuk,Ukraine,Raw,15,64.5,T1,67.5,,,,,,,,,,,70,80,90,,90,90,D,M,
1,Zénó Czinkó,Hungary,Raw,14,81.8,T1,82.5,,,,,,,,,,,100,127.5,-145,,127.5,127.5,D,M,
1,Nimród Nádasdi,Hungary,Raw,14,83.5,T1,90,,,,,,,,,,,160,170,-180,,170,170,D,M,
DQ,Lubomír Fábry,Slovakia,Raw,14,92.6,T1,100,,,,,,,,,,,-180,-190,-190,,,,D,M,
1,Gvido Ozols,Latvia,Raw,15,110.1,T1,125,,,,,,,,,,,185,192.5,-200,,192.5,192.5,D,M,
1,Vojtěch Svoboda,Czechia,Raw,17,59.4,T2,60,,,,,,,,,,,165,180.5,187.5,-190,187.5,187.5,D,M,
1,Andrii Viazkov,Ukraine,Raw,17,75,T2,75,,,,,,,,,,,170,-177.5,177.5,,177.5,177.5,D,M,
1,Vojtěch Štegner,Czechia,Raw,17,76.9,T2,82.5,,,,,,,,,,,230,240,-250,,240,240,D,M,
1,Péter Holéczy,Hungary,Raw,17,119.2,T2,125,,,,,,,,,,,241,250,260,-265,260,260,D,M,
1,Jakub Fiala,Czechia,Raw,17,133.5,T2,140,,,,,,,,,,,200,215,-220,,215,215,D,M,
1,Mattia Mariani,,Raw,19,72.9,T3,75,,,,,,,,,,,175,182.5,185,,185,185,D,M,
1,Máté Hegedűs,Hungary,Raw,18,87.9,T3,90,,,,,,,,,,,207.5,215,222.5,,222.5,222.5,D,M,
1,Antonín Lejsek,Czechia,Raw,19,93.3,T3,100,,,,,,,,,,,230,240,250,,250,250,D,M,
1,Dániel Horváth #1,Czechia,Raw,19,105.5,T3,110,,,,,,,,,,,200,220,230,,230,230,D,M,
1,Richárd Soma Tóth,Czechia,Raw,19,121,T3,125,,,,,,,,,,,220,235,242.5,,242.5,242.5,D,M,
1,Marek Šimurda,,Raw,23,53.6,J,56,,,,,,,,,,,130,150,-162.5,-162.5,150,150,D,M,
1,Marek Belas,Czechia,Raw,22,66.1,J,67.5,,,,,,,,,,,200,-225,-225,,200,200,D,M,
1,David Mareš,Czechia,Raw,22,74.8,J,75,,,,,,,,,,,-230,230,235,,235,235,D,M,
2,Patrik Oehm,Czechia,Raw,22,73.2,J,75,,,,,,,,,,,210,-225,-225,,210,210,D,M,
1,Matěj Kubíček,Czechia,Raw,23,87.4,J,90,,,,,,,,,,,270,285,-300,,285,285,D,M,
2,Pavel Mynařík,Czechia,Raw,21,85.4,J,90,,,,,,,,,,,250,-260,-270,,250,250,D,M,
3,Francesco Cinfrignini,Italy,Raw,23,88.1,J,90,,,,,,,,,,,220,235,245,,245,245,D,M,
1,Đorđe Miljenović,Montenegro,Raw,23,92.1,J,100,,,,,,,,,,,305,320,-335,,320,320,D,M,
2,Dominik Budai,Czechia,Raw,20,95.6,J,100,,,,,,,,,,,-260,270,280,,280,280,D,M,
3,Belina Matej,Czechia,Raw,20,98.2,J,100,,,,,,,,,,,235,-245,-245,,235,235,D,M,
4,Petr Valchář,Czechia,Raw,22,90.5,J,100,,,,,,,,,,,230,-235,-235,,230,230,D,M,
1,Dominik Lipták,Czechia,Raw,22,114.8,J,125,,,,,,,,,,,300,310,-312.5,,310,310,D,M,
2,Erik Véró,Czechia,Raw,23,121.1,J,125,,,,,,,,,,,170,-190,-200,,170,170,D,M,
1,Gábor Görcs,Czechia,Raw,39,58.6,O,60,,,,,,,,,,,130,140,-145,,140,140,D,M,
1,Martin Ürban,Czechia,Raw,32,74.6,O,75,,,,,,,,,,,220,-230,235,,235,235,D,M,
2,Wiesław Kiwacki,Poland,Raw,46,72.6,O,75,,,,,,,,,,,-190,200,217.5,,217.5,217.5,D,M,
3,Jan Machovjak,Czechia,Raw,24,73.2,O,75,,,,,,,,,,,200,-230,-230,,200,200,D,M,
4,Tibor Dobó,Czechia,Raw,26,69.4,O,75,,,,,,,,,,,180,190,-200,,190,190,D,M,
1,Jiří Balabán,Czechia,Raw,28,78.7,O,82.5,,,,,,,,,,,260,270,280,,280,280,D,M,
2,Attila Salamon,Czechia,Raw,27,81.4,O,82.5,,,,,,,,,,,250,260,-270,,260,260,D,M,
3,Riccardo Tata,Italy,Raw,25,79.5,O,82.5,,,,,,,,,,,230,-240,-240,,230,230,D,M,
1,Šimon Matějka,Czechia,Raw,29,88.6,O,90,,,,,,,,,,,280,300,-302.5,,300,300,D,M,
2,Vojtěch Semerád,Czechia,Raw,29,88.2,O,90,,,,,,,,,,,-260,270,285,,285,285,D,M,
3,Diasamidze Nukri,Georgia,Raw,27,89.2,O,90,,,,,,,,,,,270,285,-302.5,,285,285,D,M,
4,László Cérna,Czechia,Raw,30,88.1,O,90,,,,,,,,,,,280,-300,-300,,280,280,D,M,
5,Mihály Márki-Kira,Hungary,Raw,29,89.6,O,90,,,,,,,,,,,265,275,-282.5,,275,275,D,M,
6,Alessio Turchetti,Italy,Raw,24,86.3,O,90,,,,,,,,,,,250,262.5,-272.5,,262.5,262.5,D,M,
7,Norbert Gerhát,Hungary,Raw,32,88.1,O,90,,,,,,,,,,,-245,250,-255,,250,250,D,M,
8,Andrea Ziviani,Italy,Raw,28,88.7,O,90,,,,,,,,,,,220,230,232.5,,232.5,232.5,D,M,
9,Csaba Demjan,Hungary,Raw,34,88.4,O,90,,,,,,,,,,,205,215,-222.5,,215,215,D,M,
10,Vojtěch Žemba,Czechia,Raw,26,86.8,O,90,,,,,,,,,,,200,210,-215,,210,210,D,M,
1,Pál Tóth,Hungary,Raw,32,90.3,O,100,,,,,,,,,,,260,270,280,,280,280,D,M,
2,Szabolcs Szatmári,Hungary,Raw,31,96.1,O,100,,,,,,,,,,,280,-300,-300,,280,280,D,M,
3,Mátyás Sándor Mészáros,Hungary,Raw,28,98.1,O,100,,,,,,,,,,,220,230,240,,240,240,D,M,
1,Marek Muška,Slovakia,Raw,34,103.4,O,110,,,,,,,,,,,260,-280,-280,,260,260,D,M,
2,Krisztián Németh,Hungary,Raw,27,109.1,O,110,,,,,,,,,,,230,245,-255,,245,245,D,M,
1,Ádám Kiss,Hungary,Raw,26,121.2,O,125,,,,,,,,,,,350,370,-390,,370,370,D,M,
2,Silveira Colonetti Lucas,Hungary,Raw,37,119.8,O,125,,,,,,,,,,,300,-312.5,-312.5,,300,300,D,M,
3,Václav Čáp,Czechia,Raw,31,118.4,O,125,,,,,,,,,,,270,290,-300,,290,290,D,M,
1,Dávid Kecskés,Hungary,Raw,30,134.5,O,140,,,,,,,,,,,360,380,-400,,380,380,D,M,
1,Lajos Biró,Hungary,Raw,27,143.4,O,140+,,,,,,,,,,,232.5,245,262.5,,262.5,262.5,D,M,
2,Benjamin Mastronardi,Australia,Raw,34,171,O,140+,,,,,,,,,,,230,245,-265,,245,245,D,M,
1,Mbarim Mehmeti,Albania,Raw,41,68.5,M1,75,,,,,,,,,,,210,220,-242.5,,220,220,D,M,
1,Ramaz Gabaidze,Georgia,Raw,41,99,M1,100,,,,,,,,,,,220,235,250,,250,250,D,M,
2,Przemysław Siwek,Poland,Raw,40,98.8,M1,100,,,,,,,,,,,230,245,-255,,245,245,D,M,
3,László Németh,Hungary,Raw,43,94.4,M1,100,,,,,,,,,,,225,-235,-240,,225,225,D,M,
1,Tamás Bocz,Hungary,Raw,40,107.8,M1,110,,,,,,,,,,,305,315,322.5,,322.5,322.5,D,M,
2,Nikola Lazović,Montenegro,Raw,41,108.7,M1,110,,,,,,,,,,,280,-307.5,-307.5,,280,280,D,M,
1,Konrad Dabrowski,Ireland,Raw,40,114.2,M1,125,,,,,,,,,,,270,285,-300,,285,285,D,M,
2,Mariusz Bartołowicz,Poland,Raw,43,110.8,M1,125,,,,,,,,,,,-280,280,-290,,280,280,D,M,
3,Jozef Kopálek,Slovakia,Raw,41,115.4,M1,125,,,,,,,,,,,230,240,-250,,240,240,D,M,
4,András Tóth,Hungary,Raw,40,117.8,M1,125,,,,,,,,,,,160,170,180,,180,180,D,M,
1,Adam Švehla,Czechia,Raw,42,136.3,M1,140,,,,,,,,,,,310,325,-332.5,,325,325,D,M,
2,Andrew Cairney,Scotland,Raw,44,129,M1,140,,,,,,,,,,,280,-305,312.5,,312.5,312.5,D,M,
3,László Vass,Hungary,Raw,44,127.7,M1,140,,,,,,,,,,,280,302.5,310,,310,310,D,M,
1,Zoltán Csibrák,Hungary,Raw,43,150.5,M1,140+,,,,,,,,,,,230,250,262.5,,262.5,262.5,D,M,
2,Mariusz Wyrozębski,Poland,Raw,41,151.3,M1,140+,,,,,,,,,,,240,255,262.5,,262.5,262.5,D,M,
3,Krisztián Szücs,Hungary,Raw,41,166.9,M1,140+,,,,,,,,,,,225,242.5,-257.5,,242.5,242.5,D,M,
1,Zsolt Sipos,Hungary,Raw,49,73.5,M2,75,,,,,,,,,,,180,190,-192.5,,190,190,D,M,
1,Fábio Corrêa De Lyra,Brazil,Raw,49,88.2,M2,90,,,,,,,,,,,250,-260,-270.5,,250,250,D,M,
1,Zoltán Győri,Hungary,Raw,48,100,M2,100,,,,,,,,,,,195,210,222.5,,222.5,222.5,D,M,
2,Pietro Molinari,,Raw,48,97.3,M2,100,,,,,,,,,,,180,-200,-210,,180,180,D,M,
1,Tamás Deli,Hungary,Raw,46,103.9,M2,110,,,,,,,,,,,280,293,297.5,-300,297.5,297.5,D,M,
2,Dušan Banović,Montenegro,Raw,45,106.6,M2,110,,,,,,,,,,,225,242.5,-282.5,,242.5,242.5,D,M,
3,Ákos Takács,Hungary,Raw,47,107,M2,110,,,,,,,,,,,210,225,237.5,,237.5,237.5,D,M,
4,Lubomir Tstensky,Slovakia,Raw,49,104.1,M2,110,,,,,,,,,,,210,225,-235,,225,225,D,M,
5,László Eck,Hungary,Raw,45,101.2,M2,110,,,,,,,,,,,200,215,-230,,215,215,D,M,
1,Ferenc Som,Hungary,Raw,48,115.5,M2,125,,,,,,,,,,,265,280,290,-310.5,290,290,D,M,
2,Zoltán Mihályi,Hungary,Raw,45,124.1,M2,125,,,,,,,,,,,245,265,-270,,265,265,D,M,
3,Krisztián Nagy,Hungary,Raw,46,120.2,M2,125,,,,,,,,,,,225,240,245,,245,245,D,M,
1,Tibor Karalyos,Hungary,Raw,49,139.3,M2,140,,,,,,,,,,,270,285,,,285,285,D,M,
2,Dariusz Aletorowicz Ireneusz,Poland,Raw,48,137.7,M2,140,,,,,,,,,,,245,250,257.5,,257.5,257.5,D,M,
1,Kocan Jasmin,Montenegro,Raw,52,87.5,M3,90,,,,,,,,,,,190,205,220,,220,220,D,M,
2,Chris Morgan #1,England,Raw,50,89.1,M3,90,,,,,,,,,,,180,200,220,,220,220,D,M,
3,János Illés,Hungary,Raw,51,89.5,M3,90,,,,,,,,,,,185,195,-202.5,,195,195,D,M,
1,Szabolcs Szép,Hungary,Raw,50,99,M3,100,,,,,,,,,,,225,235,240,,240,240,D,M,
2,Miklós Nagy,Hungary,Raw,53,96.5,M3,100,,,,,,,,,,,160,-170,175,,175,175,D,M,
1,Evandro Casa Grande,Brazil,Raw,53,108.5,M3,110,,,,,,,,,,,270,283,-287.5,,283,283,D,M,
2,Mzha Vanadze Datuna,Georgia,Raw,51,108,M3,110,,,,,,,,,,,240,260,272.5,,272.5,272.5,D,M,
3,László Kiss,Hungary,Raw,54,106.8,M3,110,,,,,,,,,,,270,-283,-283,,270,270,D,M,
4,György Mátyás,Hungary,Raw,54,103.8,M3,110,,,,,,,,,,,200,220,,,220,220,D,M,
1,Béla Szolnoki,Hungary,Raw,54,118.2,M3,125,,,,,,,,,,,325,340.5,,,340.5,340.5,D,M,
1,Vladimír Gosin,Israel,Raw,58,93.8,M4,100,,,,,,,,,,,280,295,,,295,295,D,M,
2,Attila Heizer,Hungary,Raw,57,97.2,M4,100,,,,,,,,,,,170,185,-200,,185,185,D,M,
1,Tibor Gejdoš,Slovakia,Raw,59,104.7,M4,110,,,,,,,,,,,225,250,,,250,250,D,M,
2,Béla Serfőző,Hungary,Raw,59,105.9,M4,110,,,,,,,,,,,190,210,,,210,210,D,M,
1,Bálint Nácsa,Hungary,Raw,58,123.4,M4,125,,,,,,,,,,,200,210,220,,220,220,D,M,
2,Zoltán Németh,Hungary,Raw,56,110.7,M4,125,,,,,,,,,,,197.5,-207.5,,,197.5,197.5,D,M,
1,Imre Hajdú-Kemény,Hungary,Raw,57,130.3,M4,140,,,,,,,,,,,130,160,165,,165,165,D,M,
1,Aleksandr Romanichev,Israel,Raw,60,55.4,M5,56,,,,,,,,,,,165,175,185,,185,185,D,M,
1,Ottó Antal,Hungary,Raw,64,57.5,M5,60,,,,,,,,,,,130,135,140,,140,140,D,M,
1,Sehovic Sejfo,Bosnia and Herzegovina,Raw,64,77,M5,82.5,,,,,,,,,,,240,250,260,,260,260,D,M,
2,Arthur Fantalis,Israel,Raw,61,79,M5,82.5,,,,,,,,,,,180,190,-200,,190,190,D,M,
1,Gregory Clark,USA,Raw,63,85.5,M5,90,,,,,,,,,,,115,125,-135,,125,125,D,M,
1,Dainis Polis,Latvia,Raw,63,100,M5,100,,,,,,,,,,,170,,,,170,170,D,M,
1,Robert Brasseur,France,Raw,62,107.7,M5,110,,,,,,,,,,,190,200,210,,210,210,D,M,
2,Imre Nagy,Hungary,Raw,60,105.2,M5,110,,,,,,,,,,,140,160,,,160,160,D,M,
1,Zsolt Kovács,Hungary,Raw,60,126.1,M5,140,,,,,,,,,,,130,150,-170,,150,150,D,M,
1,Mieczysłąw Maczka,Germany,Raw,69,86.4,M6,90,,,,,,,,,,,130,150,,,150,150,D,M,
1,Wiesław Wrŏbel,Poland,Raw,66,99.4,M6,100,,,,,,,,,,,230,,,,230,230,D,M,
1,Steffen Burkhard,Germany,Raw,73,67,M7,67.5,,,,,,,,,,,115,125,-130,,125,125,D,M,
1,Boriss Laisin,Estonia,Raw,73,69.7,M7,75,,,,,,,,,,,162.5,-182.5,-182.5,,162.5,162.5,D,M,
2,István Verebi,Hungary,Raw,72,74.6,M7,75,,,,,,,,,,,105,,,,105,105,D,M,
1,Jan Łuka,Poland,Raw,74,82,M7,82.5,,,,,,,,,,,-210,-210,218,,218,218,D,M,
2,László Harkály,Hungary,Raw,70,81.6,M7,82.5,,,,,,,,,,,155,165,170,,170,170,D,M,
1,Lothar Schulze,Germany,Raw,73,82.8,M7,90,,,,,,,,,,,155,170,180,,180,180,D,M,
1,Jozef Meravý,Slovakia,Raw,73,97.3,M7,100,,,,,,,,,,,150,172,,,172,172,D,M,
1,Jozef Bartek,Slovakia,Raw,78,78.8,M8,82.5,,,,,,,,,,,60,70,80,,80,80,D,M,
1,Ladislau Kiss,Hungary,Raw,75,98.5,M8,100,,,,,,,,,,,230,-245.5,245.5,-250,245.5,245.5,D,M,
1,Serafim Rocha,Brazil,Raw,75,102.3,M8,110,,,,,,,,,,,100,120,140,,140,140,D,M,
1,Valery Frenklach,Israel,Raw,80,64.9,M9,67.5,,,,,,,,,,,80,90,100,,100,100,D,M,
1,Imre Deák,Hungary,Raw,81,81,M9,82.5,,,,,,,,,,,100,120,130,140,130,130,D,M,
1,Marosán Tamás Ifj,Hungary,Raw,23,53.8,J,56,,,,,,135,140,145,,145,,,,,,145,B,M,
1,Filip Prchal,Czechia,Raw,20,66.3,J,67.5,,,,,,140,145,-147.5,,145,,,,,,145,B,M,
1,Josef Chaloupka,Czechia,Raw,21,73.5,J,75,,,,,,-130,130,-135,,130,,,,,,130,B,M,
1,Ferenc Márk Mata,Hungary,Raw,22,89.4,J,90,,,,,,175,182.5,185,,185,,,,,,185,B,M,
1,Ervin Tarcsa,Hungary,Raw,23,90.1,J,100,,,,,,140,145,150,,150,,,,,,150,B,M,
2,Valchár Petr,Czechia,Raw,22,90.8,J,100,,,,,,140,145,-147.5,,145,,,,,,145,B,M,
1,Hubert Fink,Poland,Raw,23,101.9,J,110,,,,,,160,165,-170,,165,,,,,,165,B,M,
1,Slawomir Józef Szymanski,Poland,Raw,38,54.8,O,56,,,,,,125,130,-137.5,,130,,,,,,130,B,M,
1,Marek Trykacz,Poland,Raw,38,60.4,O,67.5,,,,,,130,140,150,,150,,,,,,150,B,M,
2,Gábor Baranyai,Hungary,Raw,31,66.8,O,67.5,,,,,,115,-125,127.5,,127.5,,,,,,127.5,B,M,
3,László Tarcsa,Hungary,Raw,26,66.9,O,67.5,,,,,,107.5,115,-127.5,,115,,,,,,115,B,M,
1,Martin Ürban,Czechia,Raw,32,74.6,O,75,,,,,,140,-145,145,,145,,,,,,145,B,M,
2,Gergely Kerecsényi,Hungary,Raw,33,74.7,O,75,,,,,,135,140,-142.5,,140,,,,,,140,B,M,
3,Tomasz Wolszki,Poland,Raw,33,72.5,O,75,,,,,,-130,130,-132.5,,130,,,,,,130,B,M,
4,Francesco Frasca,Italy,Raw,39,73.6,O,75,,,,,,120,130,-135,,130,,,,,,130,B,M,
1,Bálint Száraz,Hungary,Raw,24,82.4,O,82.5,,,,,,175,185,192.5,,192.5,,,,,,192.5,B,M,
2,Brynjar Logi Glislason,Iceland,Raw,25,80.6,O,82.5,,,,,,145,150,155,,155,,,,,,155,B,M,
3,József Csizmadia,Hungary,Raw,24,81.9,O,82.5,,,,,,100,105,-110,,105,,,,,,105,B,M,
1,Vladimir Agasaryan,Lithuania,Raw,32,90,O,90,,,,,,195,200,202.5,,202.5,,,,,,202.5,B,M,
2,Filip Stanko,Slovakia,Raw,33,89.5,O,90,,,,,,-200,200,-202.5,,200,,,,,,200,B,M,
3,Gábor Molnár,Hungary,Raw,30,86.7,O,90,,,,,,180,190,-192.5,,190,,,,,,190,B,M,
4,Dawid Deptuch,Poland,Raw,36,89.9,O,90,,,,,,175,-182.5,,,175,,,,,,175,B,M,
1,Giedrius Kaleckas,Lithuania,Raw,35,99,O,100,,,,,,205,212.5,217.5,,217.5,,,,,,217.5,B,M,
2,Ákos Oláh,Hungary,Raw,34,99.6,O,100,,,,,,202.5,212.5,-220,,212.5,,,,,,212.5,B,M,
3,Dominik Kovalčík,Czechia,Raw,24,94.3,O,100,,,,,,195,205,-210,,205,,,,,,205,B,M,
4,Gergő Vakarcs,Hungary,Raw,27,99.2,O,100,,,,,,200,-210,-215,,200,,,,,,200,B,M,
5,Richárd Imre Balogh,Hungary,Raw,27,99.8,O,100,,,,,,180,190,-192.5,,190,,,,,,190,B,M,
6,Péter Kolompár,,Raw,24,90.5,O,100,,,,,,135,140,-145,,140,,,,,,140,B,M,
7,Arnold Pásztor,Hungary,Raw,28,94.1,O,100,,,,,,120,-130,-130,,120,,,,,,120,B,M,
DQ,Matejka Simon,Czechia,Raw,29,94.1,O,100,,,,,,-140,-150,-150,,,,,,,,,B,M,
1,Július Mertvik,Slovakia,Raw,26,101.5,O,110,,,,,,200,212.5,-215,,212.5,,,,,,212.5,B,M,
DQ,Ádám Moszkál,Hungary,Raw,27,109.9,O,110,,,,,,-255,-265,,,,,,,,,,B,M,
1,Balázs Márk Tyukodi,Hungary,Raw,28,122.7,O,125,,,,,,220,230,232.5,,232.5,,,,,,232.5,B,M,
2,Silveira Colonetti Lucas,Brazil,Raw,37,119,O,125,,,,,,215,225,-230,,225,,,,,,225,B,M,
3,Sándor Csősz,Hungary,Raw,28,121.5,O,125,,,,,,215,222.5,-230,,222.5,,,,,,222.5,B,M,
4,Attila Székely,Hungary,Raw,25,118.5,O,125,,,,,,200,-207.5,-207.5,,200,,,,,,200,B,M,
5,Cáp Václav,Czechia,Raw,31,119.9,O,125,,,,,,180,187.5,-192.5,,187.5,,,,,,187.5,B,M,
6,Petr Bezouska,Czechia,Raw,37,117.7,O,125,,,,,,-155,155,160,,160,,,,,,160,B,M,
DQ,Péter Forgács,Hungary,Raw,34,118.6,O,125,,,,,,,,,,,,,,,,,B,M,
DQ,Elias Eliasson Sveinn,Iceland,Raw,34,119,O,125,,,,,,-250,-250,-250,,,,,,,,,B,M,
1,Adam Łaskawski,Poland,Raw,38,131,O,140,,,,,,250,255,-262.5,,255,,,,,,255,B,M,
2,István Norbert Szalay,Hungary,Raw,24,132.8,O,140,,,,,,190,200,-205,,200,,,,,,200,B,M,
1,Imrich Vörös,Slovakia,Raw,39,165.5,O,140+,,,,,,200,210,230,-250.5,230,,,,,,230,B,M,
2,Martin Kuchař,Czechia,Raw,33,140.4,O,140+,,,,,,180,-190,190,,190,,,,,,190,B,M,
DQ,Benjamin Mastronardi,Australia,Raw,34,170.9,O,140+,,,,,,,,,,,,,,,,,B,M,
1,Tamás Podmaniczki,Hungary,Raw,44,82.4,M1,82.5,,,,,,140,147.5,150,,150,,,,,,150,B,M,
2,Krzysztof Wieczorek,Poland,Raw,44,77.3,M1,82.5,,,,,,130,135,-140,,135,,,,,,135,B,M,
1,Károly Tölli,Hungary,Raw,43,87.2,M1,90,,,,,,120,125,130,,130,,,,,,130,B,M,
1,László Németh,Hungary,Raw,43,95.6,M1,100,,,,,,175,185,190,,190,,,,,,190,B,M,
2,Ramaz Gabaidze,Georgia,Raw,41,99,M1,100,,,,,,150,155,,,155,,,,,,155,B,M,
3,Ivan Polichetti,Italy,Raw,41,99.5,M1,100,,,,,,137.5,140,-142.5,,140,,,,,,140,B,M,
DQ,Gracjan Podpora,Poland,Raw,41,99.5,M1,100,,,,,,-120,-120,-120,,,,,,,,,B,M,
1,Tamás Bocz,Hungary,Raw,40,109,M1,110,,,,,,205,215,217.5,,217.5,,,,,,217.5,B,M,
2,Sándor Vaszilkó,Hungary,Raw,41,105.4,M1,110,,,,,,170,177.5,182.5,,182.5,,,,,,182.5,B,M,
1,Konrad Dabrowski,Ireland,Raw,40,116.3,M1,125,,,,,,-210,210,220,,220,,,,,,220,B,M,
2,György Bajzák,Hungary,Raw,40,110.7,M1,125,,,,,,167.5,172.5,177.5,,177.5,,,,,,177.5,B,M,
3,Guilherme De Quadros,Brazil,Raw,40,122.4,M1,125,,,,,,165,175,-180,,175,,,,,,175,B,M,
4,Ferenc Klemm,Hungary,Raw,43,113.9,M1,125,,,,,,150,160,-170,,160,,,,,,160,B,M,
5,András Tóth,Hungary,Raw,40,119.4,M1,125,,,,,,145,-150,-150,,145,,,,,,145,B,M,
1,Tomas Drevnickis,Lithuania,Raw,44,126.2,M1,140,,,,,,200,215,225,,225,,,,,,225,B,M,
1,Mrázek Milan,Czechia,Raw,44,149,M1,140+,,,,,,-230,230,240,-245.5,240,,,,,,240,B,M,
1,János Tóth,Hungary,Raw,49,58.2,M2,60,,,,,,75,80,82.5,,82.5,,,,,,82.5,B,M,
1,István Répás,Hungary,Raw,46,66.7,M2,67.5,,,,,,132.5,137.5,142.5,-145,142.5,,,,,,142.5,B,M,
1,Wiesław Kiwacki,Poland,Raw,46,73,M2,75,,,,,,120,130,-140,,130,,,,,,130,B,M,
2,Tamás Id.Marosán,Hungary,Raw,48,72.2,M2,75,,,,,,105,110,115,,115,,,,,,115,B,M,
3,Mihály Gróza,Hungary,Raw,46,73.9,M2,75,,,,,,97.5,105,-107.5,,105,,,,,,105,B,M,
1,Péter Barkó,Hungary,Raw,49,79.1,M2,82.5,,,,,,140,150,155,,155,,,,,,155,B,M,
2,Igors Marudins,Latvia,Raw,47,82.2,M2,82.5,,,,,,147.5,152.5,-157.5,,152.5,,,,,,152.5,B,M,
3,Kajetan Wolejko Remigiusz,Czechia,Raw,45,81.1,M2,82.5,,,,,,142.5,150,-160,,150,,,,,,150,B,M,
1,György Berecz,Hungary,Raw,47,89.4,M2,90,,,,,,170,175,180,,180,,,,,,180,B,M,
2,Stanislav Tůma,Czechia,Raw,46,86.7,M2,90,,,,,,155,162.5,165,,165,,,,,,165,B,M,
DQ,János Örsi,Hungary,Raw,45,90,M2,90,,,,,,-200,-200,-200,,,,,,,,,B,M,
1,József Tóth,Hungary,Raw,49,97.5,M2,100,,,,,,195,200,-205,,200,,,,,,200,B,M,
2,István Szeifert,Hungary,Raw,46,97.1,M2,100,,,,,,175,-182.5,-182.5,,175,,,,,,175,B,M,
3,Mihails Rekaikins,Latvia,Raw,47,98.2,M2,100,,,,,,165,-175,-175,,165,,,,,,165,B,M,
4,Károly Szalai,Hungary,Raw,46,94.5,M2,100,,,,,,160,-170,-170,,160,,,,,,160,B,M,
5,Pietro Molinari,Italy,Raw,48,97.9,M2,100,,,,,,120,127.5,132.5,,132.5,,,,,,132.5,B,M,
1,Krzystof Zakrewski,Poland,Raw,45,104.7,M2,110,,,,,,207.5,215,-222.5,,215,,,,,,215,B,M,
2,Alius Fominas,Lithuania,Raw,49,107.9,M2,110,,,,,,187.5,195,200,,200,,,,,,200,B,M,
3,Andrei Kabantseff,Estonia,Raw,46,104.2,M2,110,,,,,,145,152.5,157.5,,157.5,,,,,,157.5,B,M,
4,Tamás Holló,Hungary,Raw,49,106.8,M2,110,,,,,,145,150,-155,,150,,,,,,150,B,M,
1,András Sebők,Hungary,Raw,46,112,M2,125,,,,,,210,212.5,215,,215,,,,,,215,B,M,
2,Péter Géresi,Hungary,Raw,46,115.9,M2,125,,,,,,205,212.5,-215,,212.5,,,,,,212.5,B,M,
3,Vladimír Kendiura,Czechia,Raw,48,119.1,M2,125,,,,,,190,200,,,200,,,,,,200,B,M,
4,Zoltán Mihályi,England,Raw,45,123.9,M2,125,,,,,,170,185,190,,190,,,,,,190,B,M,
5,Dr. Papp György Bálint,Hungary,Raw,49,113.5,M2,125,,,,,,150,160,-165,,160,,,,,,160,B,M,
1,Mareks Leitis,Latvia,Raw,47,137,M2,140,,,,,,205,212.5,-220,,212.5,,,,,,212.5,B,M,
2,Dariusz Aletorowicz Ireneusz,Poland,Raw,48,136.4,M2,140,,,,,,185,195,-202.5,,195,,,,,,195,B,M,
3,Roland Lukács,Hungary,Raw,48,130.2,M2,140,,,,,,170,-177.5,-182.5,,170,,,,,,170,B,M,
1,Marcin Piotr Czaja,Poland,Raw,47,140.2,M2,140+,,,,,,165,175,-180,,175,,,,,,175,B,M,
1,Zsolt Karlik,Hungary,Raw,51,73.9,M3,75,,,,,,150,-155,155,,155,,,,,,155,B,M,
2,István Bara,Hungary,Raw,54,74.5,M3,75,,,,,,115,120,-125,,120,,,,,,120,B,M,
1,János Aranyász,Hungary,Raw,51,80.2,M3,82.5,,,,,,130,140,150,,150,,,,,,150,B,M,
1,Korom Dezső Id,Hungary,Raw,52,82.7,M3,90,,,,,,150,160,170,,170,,,,,,170,B,M,
2,Péter Kukla,Hungary,Raw,50,84.5,M3,90,,,,,,125,135,145,,145,,,,,,145,B,M,
1,Attila Marosi,Hungary,Raw,50,96.5,M3,100,,,,,,160,165,-167.5,,165,,,,,,165,B,M,
2,Petr Kábrt,Czechia,Raw,51,96.5,M3,100,,,,,,155,160,-167.5,,160,,,,,,160,B,M,
1,Péter Ödön Takács,Hungary,Raw,50,105,M3,110,,,,,,195,205,210,,210,,,,,,210,B,M,
2,Oldřich Procházka,Czechia,Raw,52,101,M3,110,,,,,,170,180,-185,,180,,,,,,180,B,M,
3,Mzha Vanadze Datuna,Georgia,Raw,51,107.9,M3,110,,,,,,150,160,170,,170,,,,,,170,B,M,
4,Wojciech Kaliciak,Poland,Raw,51,103.7,M3,110,,,,,,140,-150,150,,150,,,,,,150,B,M,
5,Károly Willand,Hungary,Raw,51,106.9,M3,110,,,,,,140,150,-157.5,,150,,,,,,150,B,M,
1,Adam Eikman,Poland,Raw,52,122.1,M3,125,,,,,,180,-192.5,195,,195,,,,,,195,B,M,
2,Tomáš Chludil,Czechia,Raw,50,122.4,M3,125,,,,,,190,-200,-200,,190,,,,,,190,B,M,
3,Gábor Minya,Hungary,Raw,53,123.9,M3,125,,,,,,185,190,-192.5,,190,,,,,,190,B,M,
4,Pavel Zibrita,Czechia,Raw,53,115.8,M3,125,,,,,,185,-195,-195,,185,,,,,,185,B,M,
DQ,Gábor Erdődi,Hungary,Raw,51,118.4,M3,125,,,,,,-110,-110,-110,,,,,,,,,B,M,
1,László Horváth,Hungary,Raw,51,127.5,M3,140,,,,,,195,200,202.5,,202.5,,,,,,202.5,B,M,
2,Grzegorz Peksa,Poland,Raw,54,135.8,M3,140,,,,,,160,175,-202.5,,175,,,,,,175,B,M,
1,Ferenc Kalauz,Hungary,Raw,51,150.9,M3,140+,,,,,,190,200,205,,205,,,,,,205,B,M,
1,László Kupcsik,Hungary,Raw,56,86.8,M4,90,,,,,,178,190,-200,,190,,,,,,190,B,M,
2,Hermesz Ödön,Hungary,Raw,58,87.7,M4,90,,,,,,-120,125,-127.5,,125,,,,,,125,B,M,
1,Piotr Strzała,Poland,Raw,56,97.9,M4,100,,,,,,170,175,-182.5,,175,,,,,,175,B,M,
2,János Gombos,Hungary,Raw,55,98.7,M4,100,,,,,,170,-175,-182.5,,170,,,,,,170,B,M,
3,Greguš Milan,Czechia,Raw,55,97.4,M4,100,,,,,,150,157.5,-170,,157.5,,,,,,157.5,B,M,
4,Zsolt Mohácsi,Hungary,Raw,57,98,M4,100,,,,,,140,145,-147.5,,145,,,,,,145,B,M,
5,Roman Růžička,Czechia,Raw,58,98.7,M4,100,,,,,,130,140,-145,,140,,,,,,140,B,M,
1,František Nováček,Czechia,Raw,58,108.2,M4,110,,,,,,180,185,190,,190,,,,,,190,B,M,
2,László Bugyi,Hungary,Raw,59,103.5,M4,110,,,,,,165,-170,-170,,165,,,,,,165,B,M,
3,Fabio Rotondi,Italy,Raw,59,106.8,M4,110,,,,,,155,160,165,,165,,,,,,165,B,M,
4,Marcelo Schneider,Brazil,Raw,56,109,M4,110,,,,,,160,-170,-170,,160,,,,,,160,B,M,
DQ,Krzysztof Bożyczko-Jałocha,Poland,Raw,58,103.9,M4,110,,,,,,-200,-200,-205,,,,,,,,,B,M,
1,Tibor Varga,Hungary,Raw,58,113.9,M4,125,,,,,,-150,155,157.5,,157.5,,,,,,157.5,B,M,
2,Andrzej Ubertowski Adam,Poland,Raw,56,120.5,M4,125,,,,,,140,150,-157.5,,150,,,,,,150,B,M,
1,Julio Avelino Garcia,Spain,Raw,59,145.8,M4,140+,,,,,,170,190.5,200,,200,,,,,,200,B,M,
2,István Lechner,Hungary,Raw,56,163.9,M4,140+,,,,,,120,-125,-125,,120,,,,,,120,B,M,
1,Marek Strzałkowski,Poland,Raw,63,89.6,M5,90,,,,,,142.5,147.5,-150,,147.5,,,,,,147.5,B,M,
2,István Fazekas,Hungary,Raw,63,86.7,M5,90,,,,,,135,142.5,-147.5,,142.5,,,,,,142.5,B,M,
3,Gyula Leyer,Hungary,Raw,63,84,M5,90,,,,,,110,115,122.5,,122.5,,,,,,122.5,B,M,
4,Gábor Zsigmond Kovács,Hungary,Raw,60,88.5,M5,90,,,,,,100,115,-122.5,,115,,,,,,115,B,M,
1,Pomázi Miklós,Hungary,Raw,60,94.9,M5,100,,,,,,160,165,-170,,165,,,,,,165,B,M,
2,Roman Raczykowski,Poland,Raw,62,99.2,M5,100,,,,,,130,135,137.5,,137.5,,,,,,137.5,B,M,
3,Ernst Berndsen,Iceland,Raw,62,94.6,M5,100,,,,,,-120,120,130,,130,,,,,,130,B,M,
1,Krzysztof Kłopocki,Poland,Raw,64,104.6,M5,110,,,,,,175,182.5,185.5,-187.5,185.5,,,,,,185.5,B,M,
2,Béla Nagy,Hungary,Raw,62,105.2,M5,110,,,,,,130,135,140,,140,,,,,,140,B,M,
3,Imre Nagy,Hungary,Raw,60,105.1,M5,110,,,,,,120,-130,137.5,,137.5,,,,,,137.5,B,M,
1,Sándor Szabó,Hungary,Raw,60,113.6,M5,125,,,,,,155,160,,,160,,,,,,160,B,M,
1,Pál Kovács,Hungary,Raw,61,140.9,M5,140+,,,,,,120,130,137.5,-140,137.5,,,,,,137.5,B,M,
1,Nial McGuinness,Ireland,Raw,66,74.4,M6,75,,,,,,80,90,92.5,,92.5,,,,,,92.5,B,M,
1,István Kucsera,Hungary,Raw,69,85.5,M6,90,,,,,,120,125,132.5,,132.5,,,,,,132.5,B,M,
2,László Kozma,Hungary,Raw,66,88.7,M6,90,,,,,,125,130,132.5,,132.5,,,,,,132.5,B,M,
3,Petr Hajek,Czechia,Raw,68,88.5,M6,90,,,,,,110,115,-117.5,,115,,,,,,115,B,M,
DQ,Mieczysłąw Maczka,Germany,Raw,69,86.4,M6,90,,,,,,-95,,,,,,,,,,,B,M,
1,Flosi Jónsson,Iceland,Raw,69,98.6,M6,100,,,,,,130,135,140,,140,,,,,,140,B,M,
2,Miroslav Kolek,Czechia,Raw,69,90.6,M6,100,,,,,,120,-130,-130,,120,,,,,,120,B,M,
3,Tibor Horváth,Hungary,Raw,67,99.2,M6,100,,,,,,107.5,-112.5,112.5,,112.5,,,,,,112.5,B,M,
1,Július Vrbiniak,Slovakia,Raw,66,106.4,M6,110,,,,,,145,150,155,,155,,,,,,155,B,M,
2,Zoltán Bálint Varju,Hungary,Raw,68,107.5,M6,110,,,,,,100,-110,,,100,,,,,,100,B,M,
1,László Kurucz,Hungary,Raw,70,62.7,M7,67.5,,,,,,100,-105.5,105.5,,105.5,,,,,,105.5,B,M,
1,Boriss Laisin,Estonia,Raw,73,69.9,M7,75,,,,,,-105,105,107.5,,107.5,,,,,,107.5,B,M,
1,Gábor Zsolt Teleki,Hungary,Raw,70,81.6,M7,82.5,,,,,,95,100,105,,105,,,,,,105,B,M,
2,Sándor Bezsenyi,Hungary,Raw,74,81,M7,82.5,,,,,,80,85,90,,90,,,,,,90,B,M,
1,György Kerékgyártó,Hungary,Raw,73,89,M7,90,,,,,,130,135,-140.5,,135,,,,,,135,B,M,
1,Ottó Dallos,Hungary,Raw,70,98.8,M7,100,,,,,,125,135,140,,140,,,,,,140,B,M,
1,Guiseppe Cersosimo,Italy,Raw,77,74.9,M8,75,,,,,,-75,75,-80,,75,,,,,,75,B,M,
DQ,József Károly Gellért,Hungary,Raw,79,72.3,M8,75,,,,,,-75,-75,-75,,,,,,,,,B,M,
1,László Jobbágy,Hungary,Raw,76,77.8,M8,82.5,,,,,,100,110,115,,115,,,,,,115,B,M,
1,Roman Wanot,Poland,Raw,75,89.4,M8,90,,,,,,80,85,-90,,85,,,,,,85,B,M,
1,Dr. Ujvári Ernő,Hungary,Raw,75,92.2,M8,100,,,,,,95,100,107.5,,107.5,,,,,,107.5,B,M,
2,Marc Assirelli,France,Raw,75,93.3,M8,100,,,,,,97.5,102.5,-110,,102.5,,,,,,102.5,B,M,
1,József Baranyai,Hungary,Raw,83,73.6,M9,75,,,,,,75,80,-82.5,,80,,,,,,80,B,M,
2,Dr. Keszthelyi Csaba,Hungary,Raw,90,74.4,M9,75,,,,,,55,60,65,-67.5,65,,,,,,65,B,M,
1,Imre Élő,Hungary,Raw,80,87.7,M9,90,,,,,,80,85,90,,90,,,,,,90,B,M,
1,Dr. Heiner Schildbach,Germany,Raw,80,91.1,M9,100,,,,,,85,90,-92.5,,90,,,,,,90,B,M,
