Place,Name,Sex,BirthDate,State,Equipment,Division,BodyweightLbs,WeightClassLbs,Squat1Lbs,Squat2Lbs,Squat3Lbs,Best3SquatLbs,Bench1Lbs,Bench2Lbs,Bench3Lbs,Best3BenchLbs,Deadlift1Lbs,Deadlift2Lbs,Deadlift3Lbs,Best3DeadliftLbs,TotalLbs,Event
DQ,Abigail Schmutte-Leal,F,1992-06-02,IN,Wraps,F_OCR_APF,219.5,220,-245,260,270,270,-120,-130,-130,,305,325,-335,325,,SBD
1,Kaitlyn Wong,F,1991-02-03,IN,Wraps,F_SCR_APF,121.5,123,145,160,170,170,95,105,-115,105,195,215,225,225,500,SBD
1,Maria Graft,F,1988-09-05,IN,Wraps,F_SCR_APF,193,198,215,235,245,245,135,150,-160,150,225,250,285,285,680,SBD
1,Clara Lumpe,F,2008-10-09,IN,Wraps,F_TCR_1_APF,156.5,165,-225,225,245,245,-125,125,-130,125,225,255,270,270,640,SBD
DQ,Erin Hall #2,F,1979-04-05,IN,Wraps,F_MCR_2_APF,285,242+,-245,-260,-260,,150,160,175,175,350,-400,-400,350,,SBD
1,Kasi Oxendine,F,1991-10-19,IN,Wraps,F_OCR_APF,180.5,181,215,-235,235,235,105,115,-125,115,225,250,275,275,625,SBD
1,Ayden Amento,M,2003-09-15,IN,Wraps,M_JCR_APF,142.5,148,345,-385,-385,345,-265,265,-295,265,445,475,-500,475,1085,SBD
2,Nicholas Thompson,M,,IN,Wraps,M_OCR_APF,348,308+,375,-405,405,405,365,385,405,405,405,450,500,500,1310,SBD
1,Larry Adelsberger,M,1949-03-03,IN,Wraps,M_MCR_8_APF,202.5,220,190,-205,-210,190,140,150,-155,150,210,235,245,245,585,SBD
1,Ben Nguyen,M,1995-05-26,IN,Wraps,M_OCR_APF,198,198,470,510,-545,510,320,350,-365,350,465,510,550,550,1410,SBD
DQ,Chase Behrman,M,1992-06-11,IN,Wraps,M_OCR_APF,239,242,-565,565,-605,565,385,405,-415,405,-585,-585,-585,,,SBD
1,Brandon Peck,M,1998-08-31,IN,Wraps,M_OCR_APF,262,275,-495,510,530,530,375,-405,-405,375,595,-625,-625,595,1500,SBD
1,Joseph Barnes,M,1998-12-02,IN,Wraps,M_OCR_APF,323.5,308+,535,545,570,570,405,425,-440,425,595,-615,-620,595,1590,SBD
1,Thomas Roell,M,2010-06-18,IN,Wraps,M_TCR_1_APF,185,198,-240,240,-255,240,150,160,-165,160,290,315,350,350,750,SBD
1,Travis Folz,M,2005-10-13,IN,Wraps,M_TCR_3_APF,144.5,148,360,-375,-385,360,-250,-260,260,260,470,510,-520,510,1130,SBD
1,David Gugino,M,2001-01-12,IN,Wraps,M_JCR_APF,163,165,385,420,-435,420,300,315,320,320,405,435,460,460,1200,SBD
DQ,Dominic Edwards,M,2000-10-07,IN,Wraps,M_JCR_APF,164,165,-475,-485,-485,,-990,-990,-990,,-990,-990,-990,,,SBD
1,Evan Like,M,1981-06-18,IN,Wraps,M_MCR_1_APF,302,308,500,565,585,585,365,-385,-385,365,500,550,-575,550,1500,SBD
1,James Leach,M,1970-01-10,IN,Wraps,M_MCR_3_APF,236.5,242,545,585,-605,585,315,335,-990,335,525,550,-990,550,1470,SBD
1,Christopher Casey,M,1962-03-12,IN,Wraps,M_MCR_5_APF,180,181,355,-400,430,430,260,280,285,285,460,485,500,500,1215,SBD
DQ,Brandon Pittenger,M,1991-01-07,IN,Wraps,M_OCR_APF,197,198,-530,-565,-565,,300,320,340,340,585,620,-650,620,,SBD
DQ,Trevor Kennard,M,1999-03-08,IN,Wraps,M_OCR_APF,198,198,-500,-500,-500,,300,-325,-325,300,-990,-990,-990,,,SBD
1,JP Benitez,M,1983-05-08,IN,Wraps,M_OCR_APF,212,220,-425,-425,425,425,255,-280,-280,255,565,-600,-990,565,1245,SBD
1,Ethan Abbe,M,1990-09-16,IN,Wraps,M_SCR_APF,181.5,181,475,-500,500,500,285,315,325,325,500,540,570,570,1395,SBD
1,Travis Johnson,M,2007-11-20,IN,Wraps,M_TCR_2_APF,190.5,198,-350,365,-375,365,225,255,270,270,365,405,-990,405,1040,SBD
1,Lawrence Ransom,M,2007-06-18,IN,Wraps,M_TCR_2_APF,211,220,425,465,500,500,290,315,-340,315,440,485,-525,485,1300,SBD
1,Kaden Edwards,M,2005-09-01,IN,Wraps,M_TCR_3_APF,271,275,580,610,630,630,330,-350,350,350,620,650,665,665,1645,SBD
1,Samuel Feyka,M,1992-03-27,IN,Multi-ply,M_OEM_APF,165,165,-425,-455,455,455,375,405,-425,405,325,360,410,410,1270,SBD
1,Bryant Horton,M,1984-01-11,IN,Raw,M_MR_1_APF,233,242,,,,,385,405,420,420,425,500,550,550,970,BD
1,Connor Karwowski,M,1993-12-17,IN,Multi-ply,M_OEM_APF,308.5,308,,,,,735,765,-990,765,675,715,-755,715,1480,BD
1,Mike Lindsey,M,1957-08-07,IN,Raw,M_MR_6_APF,161.9,165,,,,,185,200,205,205,,,,,205,B
1,Rick Shaw,M,1956-02-07,IN,Raw,M_MR_6_APF,176.5,181,,,,,225,235,240,240,,,,,240,B
1,Bruce Edwards,M,1958-09-03,IN,Raw,M_MR_6_APF,267,275,,,,,330,345,360,360,,,,,360,B
1,Paul Yoder #1,M,1987-09-15,IN,Raw,M_OR_APF,180.7,181,,,,,275,285,300,300,,,,,300,B
1,Willie Sanders,M,1989-07-20,IN,Raw,M_OR_APF,290.5,308,,,,,405,415,-425,415,,,,,415,B
1,Paul Yoder #1,M,1987-09-15,IN,Raw,M_SR_APF,180.7,181,,,,,275,285,300,300,,,,,300,B
1,Willie Sanders,M,1989-07-20,IN,Raw,M_SR_APF,290.5,308,,,,,405,415,-425,415,,,,,415,B
